<?xml version="1.0" encoding="UTF-8"?>
<svg width="600px" height="600px" viewBox="0 0 600 600" version="1.1" xmlns="http://www.w3.org/2000/svg" xmlns:xlink="http://www.w3.org/1999/xlink">
    <!-- Generator: Sketch 61 (89581) - https://sketch.com -->
    <title>illu/10-gros-oeuvre</title>
    <desc>Created with Sketch.</desc>
    <g id="illu/10-gros-oeuvre" stroke="none" stroke-width="1" fill="none" fill-rule="evenodd">
        <g id="illu-brick" transform="translate(85.000000, 124.000000)">
            <path d="M132.079571,288.434444 C134.504503,288.434444 136.470936,290.400877 136.470936,292.825809 L136.470936,292.825809 L136.470936,341.548246 C136.470936,343.973177 134.504503,345.93961 132.079571,345.93961 L132.079571,345.93961 L10.5345809,345.93961 C8.10964912,345.93961 6.14321637,343.973177 6.14321637,341.548246 L6.14321637,341.548246 L6.14321637,292.825809 C6.14321637,290.400877 8.10964912,288.434444 10.5345809,288.434444 L10.5345809,288.434444 Z M418.662417,288.434444 C421.087349,288.434444 423.053782,290.400877 423.053782,292.825809 L423.053782,292.825809 L423.053782,341.548246 C423.053782,343.973177 421.087349,345.93961 418.662417,345.93961 L418.662417,345.93961 L297.145088,345.93961 C294.720156,345.93961 292.753723,343.973177 292.753723,341.548246 L292.753723,341.548246 L292.753723,292.825809 C292.753723,290.400877 294.720156,288.434444 297.145088,288.434444 L297.145088,288.434444 Z M203.701813,217.95384 C206.126745,217.95384 208.093177,219.920273 208.093177,222.345205 L208.093177,222.345205 L208.093177,271.067641 C208.093177,273.492573 206.126745,275.459006 203.701813,275.459006 L203.701813,275.459006 L82.1568226,275.459006 C79.7318908,275.459006 77.7654581,273.492573 77.7654581,271.067641 L77.7654581,271.067641 L77.7654581,222.345205 C77.7654581,219.920273 79.7318908,217.95384 82.1568226,217.95384 L82.1568226,217.95384 Z M132.079571,147.473236 C134.504503,147.473236 136.470936,149.439669 136.470936,151.8646 L136.470936,151.8646 L136.470936,200.587037 C136.470936,203.011969 134.504503,204.978402 132.079571,204.978402 L132.079571,204.978402 L10.5345809,204.978402 C8.10964912,204.978402 6.14321637,203.011969 6.14321637,200.587037 L6.14321637,200.587037 L6.14321637,151.8646 C6.14321637,149.439669 8.10964912,147.473236 10.5345809,147.473236 L10.5345809,147.473236 Z M418.662417,147.473236 C421.087349,147.473236 423.053782,149.439669 423.053782,151.8646 L423.053782,151.8646 L423.053782,200.587037 C423.053782,203.011969 421.087349,204.978402 418.662417,204.978402 L418.662417,204.978402 L297.145088,204.978402 C294.720156,204.978402 292.753723,203.011969 292.753723,200.587037 L292.753723,200.587037 L292.753723,151.8646 C292.753723,149.439669 294.720156,147.473236 297.145088,147.473236 L297.145088,147.473236 Z M203.701813,76.9926316 C206.126745,76.9926316 208.093177,78.9590643 208.093177,81.3839961 L208.093177,81.3839961 L208.093177,130.106433 C208.093177,132.531365 206.126745,134.497797 203.701813,134.497797 L203.701813,134.497797 L82.1526316,134.497797 C79.7276998,134.497797 77.7612671,132.531365 77.7612671,130.106433 L77.7612671,130.106433 L77.7612671,81.3839961 C77.7612671,78.9590643 79.7276998,76.9926316 82.1526316,76.9926316 L82.1526316,76.9926316 Z M132.079571,6.51118908 C134.504503,6.51118908 136.470936,8.47762183 136.470936,10.9025536 L136.470936,10.9025536 L136.470936,59.6249903 C136.470936,62.049922 134.504503,64.0163548 132.079571,64.0163548 L132.079571,64.0163548 L10.5345809,64.0163548 C8.10964912,64.0163548 6.14321637,62.049922 6.14321637,59.6249903 L6.14321637,59.6249903 L6.14321637,10.9025536 C6.14321637,8.47762183 8.10964912,6.51118908 10.5345809,6.51118908 L10.5345809,6.51118908 Z" id="Combined-Shape" fill="#00C3ED"></path>
            <path d="M275.38692,6.51118908 L153.842768,6.51118908 C151.417836,6.51118908 149.451404,8.47762183 149.451404,10.9025536 L149.451404,59.6249903 C149.451404,62.049922 151.417836,64.0163548 153.842768,64.0163548 L275.38692,64.0163548 C277.811852,64.0163548 279.778285,62.049922 279.778285,59.6249903 L279.778285,10.9025536 C279.778285,8.47762183 277.81269,6.51118908 275.38692,6.51118908" id="Fill-2" fill="#C3C3C3"></path>
            <path d="M64.7858285,130.106433 L64.7858285,81.3839961 C64.7858285,78.9590643 62.8193957,76.9926316 60.3944639,76.9926316 L10.4993762,76.9926316 C8.07444444,76.9926316 6.1080117,78.9590643 6.1080117,81.3839961 L6.1080117,130.106433 C6.1080117,132.531365 8.07444444,134.497797 10.4993762,134.497797 L60.3953021,134.497797 C62.8202339,134.497797 64.7858285,132.531365 64.7858285,130.106433" id="Fill-3" fill="#C3C3C3"></path>
            <path d="M351.400526,130.106433 L351.400526,81.3839961 C351.400526,78.9590643 349.434094,76.9926316 347.009162,76.9926316 L225.459981,76.9926316 C223.035049,76.9926316 221.068616,78.9590643 221.068616,81.3839961 L221.068616,130.106433 C221.068616,132.531365 223.035049,134.497797 225.459981,134.497797 L347.009162,134.497797 C349.434932,134.497797 351.400526,132.531365 351.400526,130.106433" id="Fill-5" fill="#C3C3C3"></path>
            <path d="M149.451404,200.587037 C149.451404,203.011969 151.417836,204.978402 153.842768,204.978402 L275.355068,204.978402 C277.78,204.978402 279.746433,203.011969 279.746433,200.587037 L279.746433,151.8646 C279.746433,149.439669 277.78,147.473236 275.355068,147.473236 L153.842768,147.473236 C151.417836,147.473236 149.451404,149.439669 149.451404,151.8646 L149.451404,200.587037" id="Fill-7" fill="#C3C3C3"></path>
            <path d="M64.7858285,271.067641 L64.7858285,222.345205 C64.7858285,219.920273 62.8193957,217.95384 60.3944639,217.95384 L10.4993762,217.95384 C8.07444444,217.95384 6.1080117,219.920273 6.1080117,222.345205 L6.1080117,271.067641 C6.1080117,273.492573 8.07444444,275.459006 10.4993762,275.459006 L60.3953021,275.459006 C62.8202339,275.459006 64.7858285,273.493411 64.7858285,271.067641" id="Fill-9" fill="#C3C3C3"></path>
            <path d="M221.072807,222.345205 L221.072807,271.067641 C221.072807,273.492573 223.03924,275.459006 225.464172,275.459006 L347.009162,275.459006 C349.434094,275.459006 351.400526,273.492573 351.400526,271.067641 L351.400526,222.345205 C351.400526,219.920273 349.434094,217.95384 347.009162,217.95384 L225.464172,217.95384 C223.03924,217.95384 221.072807,219.920273 221.072807,222.345205" id="Fill-11" fill="#C3C3C3"></path>
            <path d="M149.451404,292.825809 L149.451404,341.548246 C149.451404,343.973177 151.417836,345.93961 153.842768,345.93961 L275.355068,345.93961 C277.78,345.93961 279.746433,343.973177 279.746433,341.548246 L279.746433,292.825809 C279.746433,290.400877 277.78,288.434444 275.355068,288.434444 L153.842768,288.434444 C151.416998,288.434444 149.451404,290.400877 149.451404,292.825809" id="Fill-13" fill="#C3C3C3"></path>
            <path d="M279.634113,201.546784 L279.634113,150.904854 C279.195731,148.942612 277.449747,147.473236 275.355068,147.473236 L254.836608,147.473236 L254.836608,204.978402 L275.355068,204.978402 C277.449747,204.978402 279.195731,203.509025 279.634113,201.546784" id="Fill-15" fill="#01384D" opacity="0.1"></path>
            <path d="M275.387758,6.51118908 L254.981618,6.51118908 L254.981618,64.0163548 L275.387758,64.0163548 C277.81269,64.0163548 279.779123,62.049922 279.779123,59.6249903 L279.779123,10.9025536 C279.778285,8.47762183 277.81269,6.51118908 275.387758,6.51118908" id="Fill-16" fill="#01384D" opacity="0.1"></path>
            <path d="M132.079571,6.51118908 L111.673431,6.51118908 L111.673431,64.0163548 L132.079571,64.0163548 C134.504503,64.0163548 136.470936,62.049922 136.470936,59.6249903 L136.470936,10.9025536 C136.470936,8.47762183 134.504503,6.51118908 132.079571,6.51118908" id="Fill-17" fill="#01384D" opacity="0.1"></path>
            <path d="M132.079571,288.434444 L111.673431,288.434444 L111.673431,345.93961 L132.079571,345.93961 C134.504503,345.93961 136.470936,343.973177 136.470936,341.548246 L136.470936,292.825809 C136.470936,290.400877 134.504503,288.434444 132.079571,288.434444" id="Fill-18" fill="#01384D" opacity="0.1"></path>
            <path d="M203.701813,76.9917934 L183.295673,76.9917934 L183.295673,134.496959 L203.701813,134.496959 C206.126745,134.496959 208.093177,132.530526 208.093177,130.105595 L208.093177,81.3831579 C208.093177,78.9582261 206.126745,76.9917934 203.701813,76.9917934" id="Fill-19" fill="#01384D" opacity="0.1"></path>
            <path d="M203.701813,217.95384 L183.295673,217.95384 L183.295673,275.459006 L203.701813,275.459006 C206.126745,275.459006 208.093177,273.492573 208.093177,271.067641 L208.093177,222.345205 C208.093177,219.920273 206.126745,217.95384 203.701813,217.95384" id="Fill-20" fill="#01384D" opacity="0.1"></path>
            <path d="M132.079571,147.473236 L111.673431,147.473236 L111.673431,204.978402 L132.079571,204.978402 C134.504503,204.978402 136.470936,203.011969 136.470936,200.587037 L136.470936,151.8646 C136.470936,149.43883 134.504503,147.473236 132.079571,147.473236" id="Fill-21" fill="#01384D" opacity="0.1"></path>
            <path d="M418.663255,147.473236 L398.257115,147.473236 L398.257115,204.978402 L418.663255,204.978402 C421.088187,204.978402 423.05462,203.011969 423.05462,200.587037 L423.05462,151.8646 C423.053782,149.43883 421.088187,147.473236 418.663255,147.473236" id="Fill-22" fill="#01384D" opacity="0.1"></path>
            <path d="M418.663255,288.434444 L398.257115,288.434444 L398.257115,345.93961 L418.663255,345.93961 C421.088187,345.93961 423.05462,343.973177 423.05462,341.548246 L423.05462,292.825809 C423.053782,290.400877 421.088187,288.434444 418.663255,288.434444" id="Fill-23" fill="#01384D" opacity="0.1"></path>
            <path d="M347.009162,76.9917934 L326.603021,76.9917934 L326.603021,134.496959 L347.009162,134.496959 C349.434094,134.496959 351.400526,132.530526 351.400526,130.105595 L351.400526,81.3831579 C351.400526,78.9582261 349.434932,76.9917934 347.009162,76.9917934" id="Fill-24" fill="#01384D" opacity="0.1"></path>
            <path d="M347.009162,217.95384 L326.603021,217.95384 L326.603021,275.459006 L347.009162,275.459006 C349.434094,275.459006 351.400526,273.492573 351.400526,271.067641 L351.400526,222.345205 C351.400526,219.920273 349.434932,217.95384 347.009162,217.95384" id="Fill-25" fill="#01384D" opacity="0.1"></path>
            <path d="M60.3944639,217.95384 L39.9883236,217.95384 L39.9883236,275.459006 L60.3944639,275.459006 C62.8193957,275.459006 64.7858285,273.492573 64.7858285,271.067641 L64.7858285,222.345205 C64.7858285,219.920273 62.8202339,217.95384 60.3944639,217.95384" id="Fill-26" fill="#01384D" opacity="0.1"></path>
            <path d="M60.3944639,76.9917934 L39.9883236,76.9917934 L39.9883236,134.496959 L60.3944639,134.496959 C62.8193957,134.496959 64.7858285,132.530526 64.7858285,130.105595 L64.7858285,81.3831579 C64.7858285,78.9582261 62.8202339,76.9917934 60.3944639,76.9917934" id="Fill-27" fill="#01384D" opacity="0.1"></path>
            <path d="M275.355068,288.434444 L254.948928,288.434444 L254.948928,345.93961 L275.355068,345.93961 C277.78,345.93961 279.746433,343.973177 279.746433,341.548246 L279.746433,292.825809 C279.746433,290.400877 277.780838,288.434444 275.355068,288.434444" id="Fill-28" fill="#01384D" opacity="0.1"></path>
            <path d="M132.079571,70.1243665 L10.5345809,70.1243665 C4.74508772,70.1243665 0.0352046784,65.4144834 0.0352046784,59.6249903 L0.0352046784,10.9025536 C0.0352046784,5.11306043 4.74508772,0.403177388 10.5345809,0.403177388 L52.5253801,0.403177388 C55.8983236,0.403177388 58.6333918,3.13740741 58.6333918,6.51118908 C58.6333918,9.88497076 55.8991618,12.6192008 52.5253801,12.6192008 L12.2512281,12.6192008 L12.2512281,57.9091813 L130.363762,57.9091813 L130.363762,12.6192008 L77.0236452,12.6192008 C73.6507018,12.6192008 70.9156335,9.88497076 70.9156335,6.51118908 C70.9156335,3.13740741 73.6498635,0.403177388 77.0236452,0.403177388 L132.079571,0.403177388 C137.869064,0.403177388 142.578947,5.11306043 142.578947,10.9025536 L142.578947,59.6249903 C142.578947,65.4144834 137.869064,70.1243665 132.079571,70.1243665" id="Fill-30" fill="#01384D"></path>
            <path d="M155.558577,57.9091813 L273.671111,57.9091813 L273.671111,12.6192008 L155.558577,12.6192008 L155.558577,57.9091813 Z M275.387758,70.1243665 L153.84193,70.1243665 C148.052437,70.1243665 143.343392,65.4144834 143.343392,59.6249903 L143.343392,10.9025536 C143.343392,5.11306043 148.053275,0.403177388 153.84193,0.403177388 L275.38692,0.403177388 C281.176413,0.403177388 285.886296,5.11306043 285.886296,10.9025536 L285.886296,59.6249903 C285.886296,65.4144834 281.177251,70.1243665 275.387758,70.1243665 L275.387758,70.1243665 Z" id="Fill-31" fill="#01384D"></path>
            <path d="M12.2151852,128.389786 L58.678655,128.389786 L58.678655,83.0998051 L12.2151852,83.0998051 L12.2151852,128.389786 Z M60.3944639,140.604971 L10.4993762,140.604971 C4.70988304,140.604971 0,135.895088 0,130.106433 L0,81.3839961 C0,75.5945029 4.70988304,70.8846199 10.4993762,70.8846199 L60.3953021,70.8846199 C66.1847953,70.8846199 70.8946784,75.5945029 70.8946784,81.3839961 L70.8946784,130.106433 C70.8938402,135.895088 66.1839571,140.604971 60.3944639,140.604971 L60.3944639,140.604971 Z" id="Fill-32" fill="#01384D"></path>
            <path d="M83.8692788,128.389786 L201.986004,128.389786 L201.986004,83.0998051 L83.8692788,83.0998051 L83.8692788,128.389786 Z M203.701813,140.604971 L82.1526316,140.604971 C76.3631384,140.604971 71.6540936,135.895088 71.6540936,130.105595 L71.6540936,81.3831579 C71.6540936,75.5936647 76.3639766,70.8837817 82.1526316,70.8837817 L203.701813,70.8837817 C209.491306,70.8837817 214.201189,75.5936647 214.201189,81.3831579 L214.201189,130.105595 C214.201189,135.895088 209.490468,140.604971 203.701813,140.604971 L203.701813,140.604971 Z" id="Fill-34" fill="#01384D"></path>
            <path d="M227.176628,128.389786 L345.294191,128.389786 L345.294191,83.0998051 L227.176628,83.0998051 L227.176628,128.389786 Z M347.01,140.604971 L225.459981,140.604971 C219.670487,140.604971 214.960604,135.895088 214.960604,130.105595 L214.960604,81.3831579 C214.960604,75.5936647 219.670487,70.8837817 225.459981,70.8837817 L347.009162,70.8837817 C352.798655,70.8837817 357.508538,75.5936647 357.508538,81.3831579 L357.508538,130.105595 C357.508538,135.895088 352.799493,140.604971 347.01,140.604971 L347.01,140.604971 Z" id="Fill-35" fill="#01384D"></path>
            <path d="M12.2512281,198.87039 L130.363762,198.87039 L130.363762,153.580409 L12.2512281,153.580409 L12.2512281,198.87039 Z M132.079571,211.085575 L10.5345809,211.085575 C4.74508772,211.085575 0.0352046784,206.375692 0.0352046784,200.587037 L0.0352046784,151.863762 C0.0352046784,146.074269 4.74508772,141.365224 10.5345809,141.365224 L132.079571,141.365224 C137.869064,141.365224 142.578947,146.075107 142.578947,151.863762 L142.578947,200.587037 C142.578947,206.37653 137.869064,211.085575 132.079571,211.085575 L132.079571,211.085575 Z" id="Fill-37" fill="#01384D"></path>
            <path d="M155.558577,198.87039 L273.638421,198.87039 L273.638421,153.580409 L155.558577,153.580409 L155.558577,198.87039 Z M275.355068,211.085575 L153.84193,211.085575 C148.052437,211.085575 143.343392,206.375692 143.343392,200.587037 L143.343392,151.863762 C143.343392,146.074269 148.053275,141.365224 153.84193,141.365224 L275.35423,141.365224 C281.143723,141.365224 285.853606,146.075107 285.853606,151.863762 L285.853606,200.587037 C285.853606,206.37653 281.144561,211.085575 275.355068,211.085575 L275.355068,211.085575 Z" id="Fill-39" fill="#01384D"></path>
            <path d="M298.861735,198.87039 L416.946608,198.87039 L416.946608,153.580409 L298.861735,153.580409 L298.861735,198.87039 Z M418.662417,211.085575 L297.145926,211.085575 C291.356433,211.085575 286.64655,206.375692 286.64655,200.587037 L286.64655,151.863762 C286.64655,146.074269 291.356433,141.365224 297.145926,141.365224 L418.663255,141.365224 C424.452749,141.365224 429.162632,146.075107 429.162632,151.863762 L429.162632,200.587037 C429.162632,206.37653 424.45191,211.085575 418.662417,211.085575 L418.662417,211.085575 Z" id="Fill-40" fill="#01384D"></path>
            <path d="M12.2151852,269.351832 L58.678655,269.351832 L58.678655,224.061852 L12.2151852,224.061852 L12.2151852,269.351832 Z M60.3944639,281.567018 L10.4993762,281.567018 C4.70988304,281.567018 0,276.857135 0,271.067641 L0,222.344366 C0,216.554873 4.70988304,211.84499 10.4993762,211.84499 L60.3953021,211.84499 C66.1847953,211.84499 70.8946784,216.554873 70.8946784,222.344366 L70.8946784,271.067641 C70.8938402,276.857135 66.1839571,281.567018 60.3944639,281.567018 L60.3944639,281.567018 Z" id="Fill-42" fill="#01384D"></path>
            <path d="M83.8734698,269.351832 L201.986004,269.351832 L201.986004,224.061852 L83.8734698,224.061852 L83.8734698,269.351832 Z M203.701813,281.567018 L82.1568226,281.567018 C76.3673294,281.567018 71.6574464,276.857135 71.6574464,271.06848 L71.6574464,222.345205 C71.6574464,216.555712 76.3673294,211.845828 82.1568226,211.845828 L203.701813,211.845828 C209.491306,211.845828 214.201189,216.555712 214.201189,222.345205 L214.201189,271.06848 C214.201189,276.857135 209.490468,281.567018 203.701813,281.567018 L203.701813,281.567018 Z" id="Fill-44" fill="#01384D"></path>
            <path d="M227.179981,269.351832 L345.293353,269.351832 L345.293353,224.061852 L227.179981,224.061852 L227.179981,269.351832 Z M347.01,281.567018 L225.464172,281.567018 C219.674678,281.567018 214.964795,276.857135 214.964795,271.06848 L214.964795,222.345205 C214.964795,216.555712 219.674678,211.845828 225.464172,211.845828 L347.01,211.845828 C352.799493,211.845828 357.509376,216.555712 357.509376,222.345205 L357.509376,271.06848 C357.509376,276.857135 352.799493,281.567018 347.01,281.567018 L347.01,281.567018 Z" id="Fill-45" fill="#01384D"></path>
            <path d="M12.2512281,339.831598 L130.363762,339.831598 L130.363762,294.541618 L12.2512281,294.541618 L12.2512281,339.831598 Z M132.079571,352.046784 L10.5345809,352.046784 C4.74508772,352.046784 0.0352046784,347.336901 0.0352046784,341.547407 L0.0352046784,292.824971 C0.0352046784,287.035478 4.74508772,282.325595 10.5345809,282.325595 L132.079571,282.325595 C137.869064,282.325595 142.578947,287.035478 142.578947,292.824971 L142.578947,341.547407 C142.578947,347.336901 137.869064,352.046784 132.079571,352.046784 L132.079571,352.046784 Z" id="Fill-47" fill="#01384D"></path>
            <path d="M155.558577,339.831598 L273.638421,339.831598 L273.638421,294.541618 L155.558577,294.541618 L155.558577,339.831598 Z M275.355068,352.046784 L153.84193,352.046784 C148.052437,352.046784 143.343392,347.336901 143.343392,341.547407 L143.343392,292.824971 C143.343392,287.035478 148.053275,282.325595 153.84193,282.325595 L275.35423,282.325595 C281.143723,282.325595 285.853606,287.035478 285.853606,292.824971 L285.853606,341.547407 C285.853606,347.336901 281.144561,352.046784 275.355068,352.046784 L275.355068,352.046784 Z" id="Fill-48" fill="#01384D"></path>
            <path d="M418.662417,352.046784 L297.145926,352.046784 C291.356433,352.046784 286.64655,347.336901 286.64655,341.547407 L286.64655,292.824971 C286.64655,287.035478 291.356433,282.325595 297.145926,282.325595 L371.814211,282.325595 C375.187992,282.325595 377.922222,285.059825 377.922222,288.433606 C377.922222,291.80655 375.187992,294.541618 371.814211,294.541618 L298.862573,294.541618 L298.862573,339.831598 L416.947446,339.831598 L416.947446,294.541618 L396.334269,294.541618 C392.960487,294.541618 390.227096,291.807388 390.227096,288.433606 C390.227096,285.060663 392.961326,282.325595 396.334269,282.325595 L418.663255,282.325595 C424.452749,282.325595 429.162632,287.035478 429.162632,292.824971 L429.162632,341.547407 C429.162632,347.336901 424.45191,352.046784 418.662417,352.046784" id="Fill-49" fill="#01384D"></path>
        </g>
    </g>
</svg>
