<svg width="48" height="48" viewBox="0 0 48 48" fill="none" xmlns="http://www.w3.org/2000/svg">
  <path opacity="0.1" d="M42.7115 21.1783C41.8869 21.1783 41.1288 21.4611 40.5271 21.934C40.4721 21.5858 40.1716 21.3193 39.8079 21.3193C38.9 21.3193 38.0721 21.6615 37.4456 22.2237V8.65869C37.4456 8.14091 37.0259 7.72119 36.5081 7.72119H11.493C10.9752 7.72119 10.5555 8.14091 10.5555 8.65869V22.2237C9.92895 21.6615 9.10114 21.3193 8.19317 21.3193C7.82952 21.3193 7.52895 21.5858 7.47402 21.934C6.87233 21.4611 6.11417 21.1783 5.28955 21.1783C4.88698 21.1783 4.56055 21.5046 4.56055 21.9073V25.0024C4.56055 25.4089 4.64323 25.8111 4.80345 26.1847L7.73408 33.0142C8.07842 33.8167 8.67317 34.4863 9.42945 34.923L13.8974 37.5025C14.7504 37.995 15.276 38.9052 15.276 39.8902V42.1537C15.276 42.6715 15.6957 43.0912 16.2135 43.0912H21.6583C22.1761 43.0912 22.5958 42.6715 22.5958 42.1537V34.3696C22.5958 33.801 22.469 33.244 22.2306 32.7363H25.7703C25.5318 33.244 25.405 33.801 25.405 34.3696V42.1537C25.405 42.6715 25.8247 43.0912 26.3425 43.0912H31.7873C32.3051 43.0912 32.7248 42.6715 32.7248 42.1537V39.8902C32.7248 38.9052 33.2503 37.995 34.1034 37.5025L38.5714 34.923C39.3276 34.4864 39.9224 33.8167 40.2667 33.0142L43.1974 26.1847C43.3577 25.8112 43.4403 25.4089 43.4403 25.0024V21.9073C43.4405 21.5047 43.1141 21.1783 42.7115 21.1783Z" fill="#2934D0"/>
  <path d="M36.795 31.0271L40.2941 23.9819C40.4544 23.6084 40.5371 23.2061 40.5371 22.7996V19.7046C40.5371 19.3019 40.2107 18.9756 39.8081 18.9756C37.8535 18.9756 36.269 20.5601 36.269 22.5146C36.269 23.2706 36.074 24.0138 35.7029 24.6724L32.0635 31.0271H36.795Z" fill="#6583FE"/>
  <path d="M11.2059 31.0271L7.70677 23.9819C7.54646 23.6084 7.46387 23.2061 7.46387 22.7996V19.7046C7.46387 19.3019 7.79021 18.9756 8.19287 18.9756C10.1475 18.9756 11.7319 20.5601 11.7319 22.5146C11.7319 23.2706 11.9269 24.0138 12.2981 24.6724L15.9376 31.0271H11.2059Z" fill="#6583FE"/>
  <path d="M36.5083 30.3926H11.4932C10.9754 30.3926 10.5557 29.9729 10.5557 29.4551V6.31494C10.5557 5.79716 10.9754 5.37744 11.4932 5.37744H36.5083C37.0261 5.37744 37.4458 5.79716 37.4458 6.31494V29.4551C37.4458 29.9729 37.0261 30.3926 36.5083 30.3926Z" fill="white"/>
  <path d="M13.7318 19.5386V21.5358C13.7318 21.7947 13.9417 22.0046 14.2005 22.0046C14.4593 22.0046 14.6693 21.7947 14.6693 21.5358V19.5387C14.719 19.5559 14.7708 19.5662 14.8229 19.5662C14.9429 19.5662 15.0628 19.5205 15.1544 19.429C15.3375 19.2459 15.3375 18.9491 15.1544 18.7661L14.532 18.1437C14.3559 17.9635 14.0452 17.9635 13.8691 18.1437L13.2467 18.7661C13.0636 18.9492 13.0636 19.246 13.2467 19.429C13.3779 19.5602 13.5673 19.5957 13.7318 19.5386Z" fill="#2934D0"/>
  <path d="M16.5667 19.5386V21.5358C16.5667 21.7947 16.7766 22.0046 17.0355 22.0046C17.2943 22.0046 17.5042 21.7947 17.5042 21.5358V19.5387C17.554 19.5559 17.6057 19.5662 17.6579 19.5662C17.7779 19.5662 17.8978 19.5205 17.9894 19.429C18.1725 19.2459 18.1725 18.9491 17.9894 18.7661L17.367 18.1437C17.1909 17.9635 16.8801 17.9635 16.7041 18.1437L16.0817 18.7661C15.8986 18.9492 15.8986 19.246 16.0817 19.429C16.213 19.5602 16.4024 19.5957 16.5667 19.5386Z" fill="#2934D0"/>
  <path d="M17.6582 22.4399H13.6699C13.4111 22.4399 13.2012 22.6498 13.2012 22.9087C13.2012 23.1675 13.4111 23.3774 13.6699 23.3774H17.6582C17.9171 23.3774 18.127 23.1675 18.127 22.9087C18.127 22.6498 17.9171 22.4399 17.6582 22.4399Z" fill="#2934D0"/>
  <path d="M25.3825 12.3487H22.6191C22.3603 12.3487 22.1504 12.1388 22.1504 11.8799V5.37744H25.8513V11.8799C25.8513 12.1388 25.6415 12.3487 25.3825 12.3487Z" fill="#6583FE"/>
  <path d="M21.2549 14.946H26.747C27.0059 14.946 27.2158 14.7361 27.2158 14.4773C27.2158 14.2185 27.0059 14.0085 26.747 14.0085H21.2549C20.996 14.0085 20.7861 14.2185 20.7861 14.4773C20.7861 14.7361 20.996 14.946 21.2549 14.946Z" fill="#2934D0"/>
  <path d="M22.6611 16.8511H25.3408C25.5996 16.8511 25.8095 16.6412 25.8095 16.3823C25.8095 16.1235 25.5996 15.9136 25.3408 15.9136H22.6611C22.4023 15.9136 22.1924 16.1235 22.1924 16.3823C22.1924 16.6413 22.4023 16.8511 22.6611 16.8511Z" fill="#2934D0"/>
  <path d="M22.6611 18.4751H25.3408C25.5996 18.4751 25.8095 18.2652 25.8095 18.0063C25.8095 17.7475 25.5996 17.5376 25.3408 17.5376H22.6611C22.4023 17.5376 22.1924 17.7475 22.1924 18.0063C22.1924 18.2652 22.4023 18.4751 22.6611 18.4751Z" fill="#2934D0"/>
  <path d="M20.5438 28.7315H13.3125C13.0536 28.7315 12.8438 28.5216 12.8438 28.2627V25.2483C12.8438 24.9894 13.0536 24.7795 13.3125 24.7795H20.5438C20.8027 24.7795 21.0126 24.9894 21.0126 25.2483V28.2627C21.0126 28.5217 20.8028 28.7315 20.5438 28.7315Z" fill="#6583FE"/>
  <path d="M26.275 29.5914L30.3477 24.6192C30.7041 24.1841 30.9829 23.6909 31.1721 23.1612C31.6221 21.9013 32.9402 21.1739 34.246 21.4649C35.0844 21.6518 35.5767 22.5233 35.304 23.3378L34.6514 25.2868C34.5366 25.6296 34.3543 25.9459 34.1152 26.2171L30.666 30.1296L35.0805 29.4488C35.6087 29.3585 36.068 29.0349 36.3312 28.5681L38.6063 24.5313C38.9775 23.8727 39.1725 23.1295 39.1725 22.3735C39.1725 20.4189 40.757 18.8345 42.7115 18.8345C43.1141 18.8345 43.4405 19.1608 43.4405 19.5635V22.6585C43.4405 23.065 43.3579 23.4672 43.1976 23.8408L40.267 30.6703C39.9227 31.4728 39.3279 32.1424 38.5716 32.5791L34.1037 35.1586C33.2507 35.6511 32.7251 36.5613 32.7251 37.5463V40.7473H25.4053V32.0258C25.4053 31.1383 25.7126 30.2781 26.275 29.5914Z" fill="white"/>
  <path d="M21.7261 29.5914L17.6534 24.6192C17.297 24.1841 17.0181 23.6909 16.829 23.1612C16.379 21.9013 15.0609 21.1739 13.7551 21.4649C12.9167 21.6518 12.4244 22.5233 12.6971 23.3378L13.3497 25.2868C13.4645 25.6296 13.6468 25.9459 13.8859 26.2171L17.3351 30.1296L12.9206 29.4488C12.3924 29.3585 11.933 29.0349 11.6699 28.5681L9.39477 24.5313C9.02361 23.8727 8.82861 23.1295 8.82861 22.3735C8.82861 20.4189 7.24414 18.8345 5.28955 18.8345C4.88698 18.8345 4.56055 19.1608 4.56055 19.5635V22.6585C4.56055 23.065 4.64323 23.4672 4.80345 23.8408L7.73408 30.6703C8.07842 31.4728 8.67317 32.1424 9.42945 32.5791L13.8974 35.1586C14.7504 35.6511 15.276 36.5613 15.276 37.5463V40.7473H22.5958V32.0258C22.5958 31.1383 22.2885 30.2781 21.7261 29.5914Z" fill="white"/>
  <path d="M42.7114 18.3659C41.9787 18.3659 41.2919 18.5644 40.7003 18.9091C40.4772 18.6605 40.1543 18.5068 39.8077 18.5068C39.1442 18.5068 38.4931 18.6734 37.9142 18.9834V6.31494C37.9142 5.53954 37.2833 4.90869 36.5079 4.90869H33.1653C32.9064 4.90869 32.6965 5.1186 32.6965 5.37744C32.6965 5.63629 32.9064 5.84619 33.1653 5.84619H36.5079C36.7664 5.84619 36.9767 6.05647 36.9767 6.31494V26.4146C36.9767 26.43 36.9798 26.4447 36.9813 26.4598L35.9227 28.338C35.728 28.6835 35.3922 28.92 35.0089 28.9858L31.8729 29.4693L34.4667 26.5272C34.7486 26.2073 34.9603 25.8401 35.0956 25.4357L35.7482 23.4867C35.9203 22.9727 35.866 22.4072 35.5995 21.9354C35.3329 21.4635 34.8767 21.1253 34.3476 21.0074C32.8142 20.6657 31.2589 21.5238 30.7305 23.0037C30.5588 23.484 30.308 23.9277 29.9848 24.3223L25.9121 29.2946C25.7504 29.492 25.6077 29.7029 25.4844 29.9239H22.5164C22.3931 29.7029 22.2504 29.492 22.0887 29.2946L18.016 24.3223C17.6929 23.9278 17.442 23.4841 17.2703 23.0037C16.7419 21.5239 15.1868 20.6658 13.653 21.0074C13.124 21.1253 12.6678 21.4635 12.4012 21.9354C12.1346 22.4072 12.0804 22.9726 12.2525 23.4867L12.9051 25.4357C13.0405 25.8401 13.2521 26.2073 13.5341 26.5272L16.1279 29.4692L12.9996 28.9869C12.6087 28.9199 12.2729 28.6834 12.0782 28.338L11.0241 26.4678V23.6777C11.0241 23.4189 10.8142 23.209 10.5554 23.209C10.2965 23.209 10.0866 23.4189 10.0866 23.6777V24.8044L9.80305 24.3013C9.4722 23.7142 9.29727 23.0475 9.29727 22.3736C9.29727 21.2378 8.82158 20.2117 8.06005 19.4818C8.09952 19.4581 8.14499 19.4443 8.19317 19.4443C8.87952 19.4443 9.54861 19.6764 10.0867 20.0984V20.9354C10.0867 21.1942 10.2966 21.4041 10.5555 21.4041C10.8143 21.4041 11.0242 21.1942 11.0242 20.9354V6.31494C11.0242 6.05647 11.2345 5.84619 11.493 5.84619H30.4231C30.6819 5.84619 30.8918 5.63629 30.8918 5.37744C30.8918 5.1186 30.6819 4.90869 30.4231 4.90869H11.4929C10.7175 4.90869 10.0866 5.53954 10.0866 6.31494V18.9834C9.50783 18.6734 8.85664 18.5068 8.19308 18.5068C7.84452 18.5068 7.52239 18.66 7.29992 18.9088C6.70845 18.5642 6.02192 18.3659 5.28955 18.3659C4.62917 18.3659 4.0918 18.9031 4.0918 19.5636V22.6587C4.0918 23.1315 4.1863 23.5915 4.37277 24.0258L7.30339 30.8553C7.68505 31.7448 8.35695 32.5012 9.19517 32.9851L13.6631 35.5647C14.3689 35.9721 14.8073 36.7315 14.8073 37.5465V40.7475C14.8073 41.0063 15.0172 41.2162 15.2761 41.2162C15.5349 41.2162 15.7448 41.0063 15.7448 40.7475V37.5465C15.7448 36.3976 15.1268 35.3272 14.1319 34.7528L9.66392 32.1733C8.9997 31.7898 8.4673 31.1905 8.16486 30.4857L5.23423 23.6562C5.0982 23.3393 5.0293 23.0037 5.0293 22.6587V19.5636C5.0293 19.4201 5.14602 19.3034 5.28955 19.3034C6.98249 19.3034 8.35986 20.6806 8.35986 22.3737C8.35986 23.2085 8.57652 24.0343 8.98639 24.7616L11.2615 28.7984C11.5955 29.3908 12.1713 29.7963 12.8492 29.9122L17.2637 30.5929C17.4587 30.6232 17.6516 30.5278 17.7463 30.3546C17.841 30.1815 17.8172 29.9676 17.6867 29.8196L14.2375 25.9071C14.0388 25.6816 13.8897 25.4229 13.7943 25.138L13.1417 23.1889C13.0525 22.9225 13.0794 22.641 13.2177 22.3964C13.3559 22.1519 13.583 21.9836 13.8572 21.9224C14.93 21.6831 16.0179 22.2837 16.3877 23.3189C16.5955 23.9009 16.8995 24.4382 17.291 24.9163L21.3636 29.8886C21.8561 30.4898 22.1273 31.2488 22.1273 32.0259V40.7475C22.1273 41.0063 22.3372 41.2162 22.5961 41.2162C22.8549 41.2162 23.0648 41.0063 23.0648 40.7475V32.0259C23.0648 31.6302 23.009 31.2384 22.9029 30.8613H25.0985C24.9924 31.2384 24.9366 31.6302 24.9366 32.0259V40.7475C24.9366 41.0063 25.1465 41.2162 25.4053 41.2162C25.6641 41.2162 25.8741 41.0063 25.8741 40.7475V32.0259C25.8741 31.2488 26.1453 30.4897 26.6377 29.8886L30.7104 24.9163C31.1019 24.4383 31.4058 23.9009 31.6137 23.3189C31.9834 22.2837 33.0713 21.6835 34.1442 21.9224C34.4183 21.9835 34.6455 22.1519 34.7837 22.3964C34.9219 22.641 34.9489 22.9225 34.8597 23.1889L34.2071 25.138C34.1117 25.4229 33.9626 25.6816 33.7639 25.9071L30.3146 29.8196C30.1841 29.9676 30.1603 30.1814 30.255 30.3546C30.3497 30.5278 30.5428 30.6233 30.7376 30.5929L35.1598 29.911C35.83 29.7962 36.4059 29.3908 36.7398 28.7984L39.0149 24.7615C39.4248 24.0342 39.6414 23.2084 39.6414 22.3736C39.6414 20.6806 41.0187 19.3033 42.7117 19.3033C42.8552 19.3033 42.9719 19.42 42.9719 19.5635V22.6586C42.9719 23.0036 42.903 23.3391 42.767 23.6561L39.8363 30.4856C39.5339 31.1904 39.0015 31.7897 38.3373 32.1732L33.8693 34.7527C32.8745 35.3271 32.2564 36.3975 32.2564 37.5464V40.7474C32.2564 41.0062 32.4663 41.2161 32.7251 41.2161C32.984 41.2161 33.1939 41.0062 33.1939 40.7474V37.5464C33.1939 36.7314 33.6323 35.972 34.3381 35.5646L38.806 32.985C39.6442 32.5011 40.3162 31.7447 40.6978 30.8552L43.6284 24.0257C43.8148 23.5914 43.9094 23.1314 43.9094 22.6586V19.5635C43.9091 18.9031 43.3718 18.3659 42.7114 18.3659ZM38.7037 22.3737C38.7037 23.0476 38.5287 23.7142 38.1979 24.3013L37.9143 24.8044V20.0984C38.4523 19.6764 39.1215 19.4443 39.8078 19.4443C39.8557 19.4443 39.9012 19.4583 39.9408 19.4819C39.1792 20.2119 38.7037 21.238 38.7037 22.3737Z" fill="#2934D0"/>
  <path d="M38.3359 38.0679C37.9728 38.0679 37.6314 37.9265 37.3746 37.6696C37.1179 37.4129 36.9766 37.0716 36.9766 36.7085C36.9766 36.3454 37.1179 36.0041 37.3746 35.7473C37.6314 35.4905 37.9728 35.3491 38.3359 35.3491C38.699 35.3491 39.0404 35.4905 39.2972 35.7473V35.7472V35.7473C39.5539 36.004 39.6953 36.3453 39.6953 36.7085C39.6953 37.0717 39.5538 37.413 39.2971 37.6697C39.0404 37.9265 38.699 38.0679 38.3359 38.0679ZM38.3359 36.2866C38.2233 36.2866 38.1173 36.3305 38.0376 36.4102C37.9579 36.4899 37.9141 36.5958 37.9141 36.7085C37.9141 36.8212 37.9579 36.9271 38.0375 37.0068C38.1173 37.0866 38.2232 37.1304 38.3359 37.1304C38.4486 37.1304 38.5545 37.0865 38.6342 37.0068C38.7139 36.9271 38.7578 36.8212 38.7578 36.7085C38.7578 36.5958 38.7139 36.4899 38.6342 36.4102V36.4101C38.5545 36.3305 38.4485 36.2866 38.3359 36.2866Z" fill="#6583FE"/>
  <path d="M7.46387 12.0037C7.10077 12.0037 6.75943 11.8624 6.50265 11.6055C6.24596 11.3488 6.10449 11.0075 6.10449 10.6444C6.10449 10.2813 6.24587 9.93994 6.50265 9.68316C7.03262 9.15309 7.89512 9.15319 8.42509 9.68316C8.68187 9.93994 8.82324 10.2813 8.82324 10.6444C8.82324 11.0075 8.68187 11.3489 8.42509 11.6056C8.1683 11.8623 7.82696 12.0037 7.46387 12.0037ZM7.46387 10.2227C7.35577 10.2227 7.24777 10.2638 7.16555 10.3461C7.08587 10.4258 7.04199 10.5317 7.04199 10.6444C7.04199 10.7571 7.08587 10.863 7.16555 10.9427C7.24534 11.0225 7.35118 11.0663 7.46387 11.0663C7.57655 11.0663 7.68249 11.0224 7.76218 10.9427C7.84187 10.863 7.88574 10.7571 7.88574 10.6444C7.88574 10.5317 7.84187 10.4258 7.76218 10.3461C7.67996 10.2638 7.57196 10.2227 7.46387 10.2227Z" fill="#6583FE"/>
  <path d="M40.9944 16.3057C40.6313 16.3057 40.2899 16.1643 40.0332 15.9075C39.5032 15.3776 39.5032 14.5152 40.0332 13.9851C40.5632 13.4552 41.4257 13.4551 41.9557 13.9851C42.4856 14.5152 42.4856 15.3776 41.9557 15.9075C41.6989 16.1643 41.3575 16.3057 40.9944 16.3057ZM40.9943 14.5246C40.8863 14.5246 40.7783 14.5657 40.696 14.648C40.5315 14.8124 40.5315 15.0801 40.696 15.2446C40.7757 15.3243 40.8817 15.3682 40.9943 15.3682C41.107 15.3682 41.213 15.3243 41.2927 15.2446C41.4572 15.0801 41.4572 14.8124 41.2927 14.648C41.2105 14.5657 41.1024 14.5246 40.9943 14.5246Z" fill="#6583FE"/>
  <path d="M8.35447 35.3097C8.23447 35.3097 8.11456 35.264 8.02297 35.1725L7.46384 34.6133L6.90472 35.1725C6.72162 35.3555 6.42491 35.3555 6.24181 35.1725C6.05872 34.9894 6.05872 34.6926 6.24181 34.5096L7.13244 33.6189C7.31553 33.4359 7.61225 33.4359 7.79534 33.6189L8.68597 34.5096C8.86906 34.6927 8.86906 34.9895 8.68597 35.1725C8.59437 35.264 8.47446 35.3097 8.35447 35.3097Z" fill="#6583FE"/>
  <path d="M7.73045 14.9228C7.61045 14.9228 7.49054 14.877 7.39895 14.7855L6.83982 14.2264L6.28069 14.7855C6.0976 14.9685 5.80088 14.9685 5.61779 14.7855C5.4347 14.6024 5.4347 14.3056 5.61779 14.1226L6.50841 13.232C6.69151 13.049 6.98823 13.049 7.17132 13.232L8.06195 14.1226C8.24504 14.3057 8.24504 14.6025 8.06195 14.7855C7.97035 14.877 7.85045 14.9228 7.73045 14.9228Z" fill="#6583FE"/>
</svg>
