<?xml version="1.0" encoding="UTF-8"?>
<svg width="600px" height="600px" viewBox="0 0 600 600" version="1.1" xmlns="http://www.w3.org/2000/svg" xmlns:xlink="http://www.w3.org/1999/xlink">
    <!-- Generator: Sketch 61 (89581) - https://sketch.com -->
    <title>illu/5-etudes</title>
    <desc>Created with Sketch.</desc>
    <g id="illu/5-etudes" stroke="none" stroke-width="1" fill="none" fill-rule="evenodd">
        <g id="043-measuring-tape" transform="translate(75.000000, 156.000000)">
            <path d="M143.501707,6.4195122 C219.224634,6.4195122 280.61122,67.8060976 280.61122,143.529024 L280.61122,281.259756 L76.5296341,281.259756 C37.7978049,281.259756 6.39658537,249.859634 6.39658537,211.127805 L6.39658537,143.529024 C6.39658537,67.8060976 67.7831707,6.4195122 143.501707,6.4195122 Z M428.48561,181.428902 C436.593293,181.428902 443.162195,188.014268 443.162195,196.139512 L443.162195,196.139512 L443.162195,272.728415 C443.162195,277.440244 439.341585,281.259756 434.634146,281.259756 L434.634146,281.259756 L413.810122,281.259756 L413.810122,196.139512 C413.810122,188.014268 420.383415,181.428902 428.48561,181.428902 Z" id="Combined-Shape" fill="#00C3ED"></path>
            <polygon id="Fill-2" fill="#C3C3C3" points="280.606829 281.264146 413.606829 281.264146 413.606829 219.676707 280.606829 219.676707"></polygon>
            <polygon id="Fill-3" fill="#01384D" opacity="0.1" points="387.421463 281.264146 413.805732 281.264146 413.805732 219.676707 387.421463 219.676707"></polygon>
            <path d="M239.443902,153.753902 C239.443902,206.857195 196.493049,249.91122 143.510488,249.91122 C90.5235366,249.91122 47.5726829,206.857195 47.5726829,153.753902 C47.5726829,100.651707 90.5235366,57.5976829 143.510488,57.5976829 C196.493049,57.5976829 239.443902,100.651707 239.443902,153.753902 Z" id="Fill-5" fill="#90989C"></path>
            <path d="M143.506098,57.6020732 C139.025854,57.6020732 134.626829,57.914878 130.310122,58.5108537 C177.049756,64.9546341 213.050854,105.136341 213.050854,153.75061 C213.050854,202.368171 177.049756,242.549878 130.310122,248.993659 C134.626829,249.589634 139.030244,249.902439 143.506098,249.902439 C196.488659,249.902439 239.435122,206.852805 239.435122,153.75061 C239.435122,100.647317 196.485366,57.6020732 143.506098,57.6020732 Z" id="Fill-6" fill="#01384D" opacity="0.1"></path>
            <path d="M211.435244,153.753902 C211.435244,191.354146 181.025122,221.837805 143.510488,221.837805 C105.991463,221.837805 75.5813415,191.354146 75.5813415,153.753902 C75.5813415,116.154756 105.991463,85.6710976 143.510488,85.6710976 C181.025122,85.6710976 211.435244,116.154756 211.435244,153.753902 Z" id="Fill-7" fill="#FFFFFF"></path>
            <path d="M143.506098,85.6710976 C138.956707,85.6710976 134.519268,86.1254878 130.227805,86.9793902 C161.379878,93.1696341 184.874268,120.707439 184.874268,153.75061 C184.874268,186.797073 161.379878,214.334878 130.227805,220.520732 C134.519268,221.374634 138.956707,221.833415 143.506098,221.833415 C181.020732,221.833415 211.430854,191.349756 211.430854,153.75061 C211.430854,116.150366 181.020732,85.6710976 143.506098,85.6710976 Z" id="Fill-8" fill="#01384D" opacity="0.1"></path>
            <path d="M311.162927,127.51122 C307.488293,89.2085366 290.982073,54.6046341 266.016951,28.079878 C258.681951,20.285 247.063171,18.3510976 237.660366,23.4492683 L222.680854,31.5734146 C257.75561,56.4660976 280.649634,97.4534146 280.649634,143.803415 L280.649634,160.19439 L298.93939,150.276829 C307.175488,145.805366 312.058537,136.853659 311.162927,127.51122 Z" id="Fill-9" fill="#C3C3C3"></path>
            <path d="M143.506098,6.42390244 C142.374512,6.42390244 141.25061,6.43707317 140.127805,6.46670732 C139.115854,6.49304878 138.108293,6.52707317 137.105122,6.57426829 C137.019512,6.57865854 136.938293,6.58304878 136.852683,6.58634146 C134.657561,6.69390244 132.478902,6.85304878 130.310122,7.05829268 C199.841707,13.7128049 254.222561,72.4103659 254.222561,143.841829 L254.222561,245.790976 C254.222561,250.772805 250.192317,254.811829 245.223659,254.811829 L21.7328049,254.811829 C29.2829268,264.282683 39.2202439,271.746098 50.6293902,276.299878 C50.8478049,276.389878 51.0706098,276.475488 51.2890244,276.561098 C52.0529268,276.857439 52.820122,277.135122 53.5960976,277.40622 C54.0460976,277.559878 54.4960976,277.714634 54.9504878,277.86061 C55.404878,278.009878 55.8603659,278.151463 56.3180488,278.288659 C57.0687805,278.515854 57.8282927,278.735366 58.5910976,278.93622 C58.9467073,279.03061 59.3110976,279.11622 59.6710976,279.20622 C60.4218293,279.39061 61.1758537,279.57061 61.9353659,279.729756 C62.2393902,279.793415 62.5390244,279.858171 62.8441463,279.918537 C63.6837805,280.080976 64.5289024,280.231341 65.3773171,280.368537 C65.6176829,280.406951 65.8536585,280.449756 66.0940244,280.48378 C67.0587805,280.629756 68.0312195,280.74939 69.0091463,280.852561 C69.2363415,280.878902 69.4679268,280.904146 69.695122,280.926098 C70.7026829,281.02378 71.7146341,281.101707 72.7353659,281.157683 C72.9065854,281.165366 73.0821951,281.169756 73.2534146,281.178537 C74.3378049,281.230122 75.4276829,281.259756 76.5208537,281.259756 L280.61122,281.259756 L280.61122,143.529024 C280.61122,67.8060976 219.224634,6.42390244 143.506098,6.42390244 Z" id="Fill-10" fill="#01384D" opacity="0.1"></path>
            <path d="M143.501707,256.299024 C199.927317,256.299024 245.831707,210.295854 245.831707,153.75061 C245.831707,97.2042683 199.927317,51.2010976 143.501707,51.2010976 C87.0804878,51.2010976 41.1760976,97.2042683 41.1760976,153.75061 C41.1760976,210.295854 87.0804878,256.299024 143.501707,256.299024 Z M143.501707,63.9986585 C192.87439,63.9986585 233.038537,104.261585 233.038537,153.75061 C233.038537,203.242927 192.87439,243.505854 143.501707,243.505854 C94.1334146,243.505854 53.9692683,203.242927 53.9692683,153.75061 C53.9692683,104.261585 94.1334146,63.9986585 143.501707,63.9986585 Z" id="Fill-13" fill="#01384D"></path>
            <path d="M143.501707,228.23 C184.489024,228.23 217.827439,194.818049 217.827439,153.75061 C217.827439,112.682073 184.489024,79.270122 143.501707,79.270122 C102.51878,79.270122 69.1803659,112.682073 69.1803659,153.75061 C69.1803659,194.818049 102.523171,228.23 143.501707,228.23 Z M143.501707,92.0676829 C177.431707,92.0676829 205.034268,119.738293 205.034268,153.75061 C205.034268,187.76622 177.431707,215.436829 143.501707,215.436829 C109.576098,215.436829 81.9746341,187.76622 81.9746341,153.75061 C81.9746341,119.738293 109.576098,92.0676829 143.501707,92.0676829 Z" id="Fill-14" fill="#01384D"></path>
            <path d="M428.48561,175.032317 C416.866829,175.032317 407.413537,184.49878 407.413537,196.139512 L407.413537,213.275732 L287.007805,213.275732 L287.007805,164.022683 L301.988415,155.898537 C312.573293,150.157195 318.674634,138.77439 317.534268,126.89878 C313.850854,88.5390244 297.207439,51.8870732 270.677195,23.6929268 C265.00939,17.6739024 257.03561,14.2187805 248.803902,14.2187805 C243.868171,14.2187805 238.959878,15.4656098 234.608049,17.8242683 L223.006829,24.1176829 C200.232439,8.90658537 172.887805,0.0229268293 143.506098,0.0229268293 C110.588049,0.0229268293 79.6247561,10.8657317 53.964878,31.3758537 C51.2034146,33.5841463 50.7534146,37.61 52.9617073,40.3714634 C55.17,43.127439 59.1958537,43.5785366 61.9518293,41.3702439 C85.3221951,22.6941463 113.520732,12.8204878 143.501707,12.8204878 C185.011463,12.8204878 222.054146,32.2681707 246.016098,62.5279268 C246.175244,62.7254878 246.33,62.9230488 246.483659,63.1239024 C246.899634,63.6518293 247.302439,64.1830488 247.706341,64.7142683 C248.177195,65.3365854 248.644756,65.9621951 249.103537,66.5921951 C249.261585,66.815 249.429512,67.0389024 249.587561,67.2617073 C262.308293,84.9895122 270.519146,105.753171 273.245488,127.657195 C273.301463,128.102805 273.348659,128.549512 273.400244,128.999512 C273.463902,129.582317 273.528659,130.169512 273.584634,130.756707 C273.99622,134.958171 274.210244,139.22 274.210244,143.529024 L274.210244,274.863171 L76.5296341,274.863171 C41.3857317,274.863171 12.797561,246.27061 12.797561,211.127805 L12.797561,143.529024 C12.797561,112.403293 23.9191463,82.25 44.1164634,58.6304878 C46.4147561,55.9469512 46.097561,51.9046341 43.4140244,49.6107317 C40.7293902,47.312439 36.6914634,47.6296341 34.3931707,50.3131707 C12.2147561,76.2518293 0,109.354268 0,143.529024 L0,211.127805 C0,253.327927 34.3328049,287.656341 76.5296341,287.656341 L341.701463,287.656341 C345.234512,287.656341 348.102439,284.792805 348.102439,281.259756 C348.102439,277.727805 345.234512,274.863171 341.701463,274.863171 L287.007805,274.863171 L287.007805,226.073293 L297.970244,226.073293 L297.970244,247.338537 C297.970244,250.875976 300.834878,253.739512 304.366829,253.739512 C307.904268,253.739512 310.768902,250.875976 310.768902,247.338537 L310.768902,226.073293 L335.201707,226.073293 L335.201707,238.49 C335.201707,242.026341 338.066341,244.890976 341.598293,244.890976 C345.135732,244.890976 347.999268,242.026341 347.999268,238.49 L347.999268,226.073293 L374.221098,226.073293 L374.221098,247.338537 C374.221098,250.875976 377.084634,253.739512 380.617683,253.739512 C384.150732,253.739512 387.014268,250.875976 387.014268,247.338537 L387.014268,226.073293 L407.413537,226.073293 L407.413537,274.863171 L367.399756,274.863171 C363.866707,274.863171 361.003171,277.727805 361.003171,281.259756 C361.003171,284.792805 363.866707,287.656341 367.399756,287.656341 L434.634146,287.656341 C442.865854,287.656341 449.563171,280.960122 449.563171,272.732805 L449.563171,196.139512 C449.563171,184.49878 440.10878,175.032317 428.48561,175.032317 Z M240.708293,29.0742683 C243.190976,27.727561 245.990854,27.0163415 248.803902,27.0163415 C253.523415,27.0163415 258.098049,29.0007317 261.356707,32.4657317 C285.953049,58.6008537 301.383659,92.5736585 304.795976,128.120366 C305.443537,134.876951 301.944512,141.363537 295.887073,144.651829 L287.05061,149.445976 L287.05061,143.799024 C287.05061,139.053171 286.798171,134.336951 286.33939,129.663537 C286.296585,129.247561 286.257073,128.827195 286.214268,128.412317 C286.155,127.88439 286.094634,127.357561 286.029878,126.834024 C285.919024,125.844024 285.79061,124.857317 285.657805,123.871707 C285.649024,123.802561 285.635854,123.730122 285.627073,123.660976 C282.467195,100.955732 273.978659,79.9352439 261.468659,61.9067073 C261.356707,61.7431707 261.244756,61.585122 261.133902,61.4259756 C260.636707,60.7147561 260.130732,60.0112195 259.624756,59.3131707 C259.29,58.8543902 258.959634,58.3912195 258.621585,57.9368293 C258.432805,57.6832927 258.239634,57.4352439 258.050854,57.1817073 C251.229512,48.1136585 243.31939,39.805122 234.410488,32.4909756 L240.708293,29.0742683 Z M436.764512,272.728415 C436.764512,273.907195 435.808537,274.863171 434.634146,274.863171 L420.211098,274.863171 L420.211098,196.139512 C420.211098,191.556098 423.924146,187.825488 428.48561,187.825488 C433.052561,187.825488 436.764512,191.556098 436.764512,196.139512 L436.764512,272.728415 Z" id="Fill-16" fill="#01384D"></path>
        </g>
    </g>
</svg>
