<svg width="39" height="41" viewBox="0 0 39 41" fill="none" xmlns="http://www.w3.org/2000/svg">
<path opacity="0.1" d="M36.7057 18.3337L33.9964 17.7581C33.6317 16.3153 33.0626 14.9541 32.3257 13.7044L33.8295 11.3897C34.0789 11.0053 34.0254 10.4991 33.702 10.1747L30.4085 6.88124C30.0851 6.5578 29.5789 6.50436 29.1945 6.75374L26.892 8.24999C25.6376 7.5028 24.2698 6.92624 22.8176 6.55593L22.2495 3.87843C22.1548 3.42936 21.7592 3.10968 21.3007 3.10968H16.6432C16.1848 3.10968 15.7892 3.42936 15.6945 3.87843L15.1264 6.55593C13.6742 6.92624 12.3064 7.5028 11.052 8.24999L8.74948 6.75374C8.36511 6.50436 7.85886 6.5578 7.53542 6.88124L4.24198 10.1747C3.91854 10.4991 3.86511 11.0053 4.11448 11.3897L5.61823 13.7044C4.88136 14.9541 4.31229 16.3153 3.94761 17.7581L1.23823 18.3337C0.790107 18.4294 0.469482 18.825 0.469482 19.2825V23.9391C0.469482 24.3975 0.790107 24.7931 1.23823 24.8887L3.96917 25.4681C4.33855 26.8969 4.90761 28.2441 5.64261 29.4816L4.11448 31.8328C3.86511 32.2172 3.91854 32.7234 4.24198 33.0478L7.53542 36.3412C7.85886 36.6647 8.36511 36.7181 8.74948 36.4687L11.1148 34.9322C12.3476 35.6578 13.6882 36.2194 15.1085 36.5831L15.6945 39.3441C15.7892 39.7931 16.1848 40.1128 16.6432 40.1128H21.3007C21.7592 40.1128 22.1548 39.7931 22.2495 39.3441L22.8354 36.5831C24.2557 36.2194 25.5964 35.6578 26.8292 34.9322L29.1945 36.4687C29.5789 36.7181 30.0851 36.6647 30.4085 36.3412L33.702 33.0478C34.0254 32.7234 34.0789 32.2172 33.8295 31.8328L32.3014 29.4816C33.0364 28.2441 33.6054 26.8969 33.9748 25.4681L36.7057 24.8887C37.1539 24.7931 37.4745 24.3975 37.4745 23.9391V19.2825C37.4745 18.825 37.1539 18.4294 36.7057 18.3337ZM18.972 33.1003C12.6054 33.1003 7.44354 27.9384 7.44354 21.5719C7.44354 15.9728 11.4361 11.3062 16.729 10.2622C14.3987 14.1116 11.0823 20.0856 11.0823 22.9093C11.0823 27.2624 14.6111 30.7912 18.9642 30.7912C23.3173 30.7912 26.8461 27.2624 26.8461 22.9093C26.8461 20.0847 23.5279 14.1081 21.1973 10.2589C26.499 11.296 30.5003 15.9666 30.5003 21.5719C30.5004 27.9384 25.3385 33.1003 18.972 33.1003Z" fill="#2C2E3C"/>
<path d="M36.7057 16.0837L33.9964 15.5081C33.6317 14.0653 33.0626 12.7041 32.3257 11.4544L33.8295 9.13968C34.0789 8.7553 34.0254 8.24905 33.702 7.92468L30.4085 4.63124C30.0851 4.3078 29.5789 4.25436 29.1945 4.50374L26.892 5.99999C25.6376 5.2528 24.2698 4.67624 22.8176 4.30593L22.2495 1.62843C22.1548 1.17936 21.7592 0.859676 21.3007 0.859676H16.6432C16.1848 0.859676 15.7892 1.17936 15.6945 1.62843L15.1264 4.30593C13.6742 4.67624 12.3064 5.2528 11.052 5.99999L8.74948 4.50374C8.36511 4.25436 7.85886 4.3078 7.53542 4.63124L4.24198 7.92468C3.91854 8.24905 3.86511 8.7553 4.11448 9.13968L5.61823 11.4544C4.88136 12.7041 4.31229 14.0653 3.94761 15.5081L1.23823 16.0837C0.790107 16.1794 0.469482 16.575 0.469482 17.0325V21.6891C0.469482 22.1475 0.790107 22.5431 1.23823 22.6387L3.96917 23.2181C4.33855 24.6469 4.90761 25.9941 5.64261 27.2316L4.11448 29.5828C3.86511 29.9672 3.91854 30.4734 4.24198 30.7978L7.53542 34.0912C7.85886 34.4147 8.36511 34.4681 8.74948 34.2187L11.1148 32.6822C12.3476 33.4078 13.6882 33.9694 15.1085 34.3331L15.6945 37.0941C15.7892 37.5431 16.1848 37.8628 16.6432 37.8628H21.3007C21.7592 37.8628 22.1548 37.5431 22.2495 37.0941L22.8354 34.3331C24.2557 33.9694 25.5964 33.4078 26.8292 32.6822L29.1945 34.2187C29.5789 34.4681 30.0851 34.4147 30.4085 34.0912L33.702 30.7978C34.0254 30.4734 34.0789 29.9672 33.8295 29.5828L32.3014 27.2316C33.0364 25.9941 33.6054 24.6469 33.9748 23.2181L36.7057 22.6387C37.1539 22.5431 37.4745 22.1475 37.4745 21.6891V17.0325C37.4745 16.575 37.1539 16.1794 36.7057 16.0837ZM18.972 30.8503C12.6054 30.8503 7.44354 25.6884 7.44354 19.3219C7.44354 12.9553 12.6054 7.79343 18.972 7.79343C25.3385 7.79343 30.5004 12.9553 30.5004 19.3219C30.5004 25.6884 25.3385 30.8503 18.972 30.8503Z" fill="white"/>
<path d="M18.972 5.88748C11.5526 5.88748 5.5376 11.9025 5.5376 19.3219C5.5376 26.7412 11.5526 32.7562 18.972 32.7562C26.3914 32.7562 32.4063 26.7412 32.4063 19.3219C32.4063 11.9025 26.3914 5.88748 18.972 5.88748ZM18.972 30.8503C12.6054 30.8503 7.44354 25.6884 7.44354 19.3219C7.44354 12.9553 12.6054 7.79342 18.972 7.79342C25.3385 7.79342 30.5004 12.9553 30.5004 19.3219C30.5004 25.6884 25.3385 30.8503 18.972 30.8503Z" fill="#00C3ED"/>
<path d="M18.9719 3.58818C18.713 3.58818 18.5032 3.37827 18.5032 3.11943V2.66155C18.5032 2.40271 18.713 2.1928 18.9719 2.1928C19.2309 2.1928 19.4407 2.40271 19.4407 2.66155V3.11933C19.4407 3.37827 19.2309 3.58818 18.9719 3.58818Z" fill="#2C2E3C"/>
<path d="M18.9719 36.5298C18.713 36.5298 18.5032 36.3199 18.5032 36.061V35.6032C18.5032 35.3443 18.713 35.1344 18.9719 35.1344C19.2309 35.1344 19.4407 35.3443 19.4407 35.6032V36.061C19.4407 36.3199 19.2309 36.5298 18.9719 36.5298Z" fill="#2C2E3C"/>
<path d="M35.6717 19.83H35.2139C34.9549 19.83 34.7451 19.6201 34.7451 19.3612C34.7451 19.1024 34.9549 18.8925 35.2139 18.8925H35.6717C35.9307 18.8925 36.1405 19.1024 36.1405 19.3612C36.1405 19.6201 35.9307 19.83 35.6717 19.83Z" fill="#2C2E3C"/>
<path d="M2.73009 19.83H2.27222C2.01328 19.83 1.80347 19.6201 1.80347 19.3612C1.80347 19.1024 2.01328 18.8925 2.27222 18.8925H2.73009C2.98903 18.8925 3.19884 19.1024 3.19884 19.3612C3.19884 19.6201 2.98903 19.83 2.73009 19.83Z" fill="#2C2E3C"/>
<path d="M30.7805 31.6385C30.6606 31.6385 30.5405 31.5927 30.4491 31.5012L30.1254 31.1775C29.9423 30.9944 29.9423 30.6976 30.1254 30.5146C30.3083 30.3316 30.6053 30.3316 30.7882 30.5146L31.1119 30.8383C31.295 31.0214 31.295 31.3182 31.1119 31.5012C31.0205 31.5927 30.9004 31.6385 30.7805 31.6385Z" fill="#2C2E3C"/>
<path d="M7.48727 8.34523C7.36736 8.34523 7.24727 8.29948 7.15586 8.20798L6.83214 7.88426C6.64905 7.70117 6.64905 7.40436 6.83214 7.22136C7.01505 7.03836 7.31205 7.03836 7.49496 7.22136L7.81868 7.54507C8.00177 7.72817 8.00177 8.02498 7.81868 8.20798C7.72727 8.29948 7.60718 8.34523 7.48727 8.34523Z" fill="#2C2E3C"/>
<path d="M7.16355 31.6385C7.04364 31.6385 6.92355 31.5927 6.83214 31.5012C6.64905 31.3181 6.64905 31.0213 6.83214 30.8383L7.15586 30.5146C7.33877 30.3316 7.63577 30.3316 7.81868 30.5146C8.00177 30.6977 8.00177 30.9945 7.81868 31.1775L7.49496 31.5012C7.40355 31.5927 7.28346 31.6385 7.16355 31.6385Z" fill="#2C2E3C"/>
<path d="M30.4568 8.34523C30.3369 8.34523 30.2168 8.29948 30.1254 8.20798C29.9423 8.02489 29.9423 7.72807 30.1254 7.54507L30.4491 7.22136C30.632 7.03836 30.929 7.03836 31.1119 7.22136C31.295 7.40445 31.295 7.70126 31.1119 7.88426L30.7882 8.20798C30.6968 8.29948 30.5767 8.34523 30.4568 8.34523Z" fill="#2C2E3C"/>
<path d="M32.4062 3C32.1473 3 31.9375 2.7901 31.9375 2.53125C31.9375 2.22103 31.6852 1.96875 31.375 1.96875C31.1161 1.96875 30.9062 1.75885 30.9062 1.5C30.9062 1.24116 31.1161 1.03125 31.375 1.03125C31.6852 1.03125 31.9375 0.77897 31.9375 0.468751C31.9375 0.209906 32.1473 0 32.4062 0C32.6652 0 32.875 0.209906 32.875 0.468751C32.875 0.77897 33.1273 1.03125 33.4375 1.03125C33.6964 1.03125 33.9062 1.24116 33.9062 1.5C33.9062 1.75885 33.6964 1.96875 33.4375 1.96875C33.1273 1.96875 32.875 2.22103 32.875 2.53125C32.875 2.7901 32.6652 3 32.4062 3Z" fill="#00C3ED"/>
<path d="M37.4744 28.9031C37.2154 28.9031 37.0056 28.6932 37.0056 28.4343C37.0056 28.1241 36.7532 27.8718 36.4431 27.8718C36.1842 27.8718 35.9744 27.6619 35.9744 27.4031C35.9744 27.1443 36.1842 26.9343 36.4431 26.9343C36.7532 26.9343 37.0056 26.6821 37.0056 26.3718C37.0056 26.113 37.2154 25.9031 37.4744 25.9031C37.7333 25.9031 37.9431 26.113 37.9431 26.3718C37.9431 26.6821 38.1954 26.9343 38.5056 26.9343C38.7646 26.9343 38.9744 27.1443 38.9744 27.4031C38.9744 27.6619 38.7646 27.8718 38.5056 27.8718C38.1954 27.8718 37.9431 28.1241 37.9431 28.4343C37.9431 28.6933 37.7333 28.9031 37.4744 28.9031Z" fill="#00C3ED"/>
<path d="M36.1988 8.41876C36.0789 8.41876 35.9588 8.37301 35.8674 8.28151C35.6843 8.09842 35.6843 7.8016 35.8674 7.6186L36.1793 7.3066L35.7104 7.00923C35.5902 6.93301 35.5112 6.80626 35.4955 6.66488C35.4799 6.52342 35.5294 6.38251 35.6301 6.28192L36.3559 5.5561C36.5388 5.3731 36.8358 5.3731 37.0187 5.5561C37.2018 5.7392 37.2018 6.03601 37.0187 6.21901L36.7068 6.53092L37.1757 6.82829C37.2959 6.90451 37.3749 7.03117 37.3906 7.17263C37.4062 7.3141 37.3568 7.45501 37.2561 7.5556L36.5302 8.28142C36.4388 8.37301 36.3187 8.41876 36.1988 8.41876Z" fill="#00C3ED"/>
<path d="M0.759382 12.6574C0.639476 12.6574 0.519382 12.6116 0.427976 12.5201C0.244882 12.337 0.244882 12.0402 0.427976 11.8572L0.739882 11.5452L0.270944 11.2478C0.150756 11.1716 0.0717251 11.0449 0.0560689 10.9035C0.0404126 10.762 0.0899128 10.6211 0.1906 10.5205L0.916413 9.79472C1.09932 9.61172 1.39632 9.61172 1.57923 9.79472C1.76232 9.97781 1.76232 10.2746 1.57923 10.4576L1.26732 10.7695L1.73626 11.0669C1.85645 11.1431 1.93548 11.2699 1.95113 11.4113C1.96679 11.5527 1.91738 11.6936 1.8166 11.7942L1.09079 12.52C0.999382 12.6116 0.879382 12.6574 0.759382 12.6574Z" fill="#00C3ED"/>
<path d="M11.8724 40.1906C11.7525 40.1906 11.6324 40.1449 11.541 40.0534C11.3579 39.8703 11.3579 39.5735 11.541 39.3905L11.8529 39.0786L11.384 38.7812C11.2638 38.705 11.1848 38.5782 11.1691 38.4368C11.1535 38.2954 11.2029 38.1545 11.3036 38.0539L12.0295 37.3281C12.2124 37.1451 12.5094 37.1451 12.6923 37.3281C12.8754 37.5112 12.8754 37.808 12.6923 37.991L12.3804 38.303L12.8493 38.6003C12.9695 38.6766 13.0485 38.8032 13.0642 38.9447C13.0798 39.0862 13.0303 39.2271 12.9296 39.3277L12.2038 40.0535C12.1123 40.1448 11.9923 40.1906 11.8724 40.1906Z" fill="#00C3ED"/>
<path d="M26.8462 20.6594C26.8462 25.0125 23.3173 28.5414 18.9642 28.5414C14.6111 28.5414 11.0823 25.0125 11.0823 20.6594C11.0823 16.9258 16.8804 7.68414 18.5308 5.12935C18.7342 4.81435 19.1943 4.81435 19.3978 5.12935C21.048 7.68414 26.8462 16.9258 26.8462 20.6594Z" fill="white"/>
<path d="M36.8032 15.6254L34.376 15.1095C34.0302 13.8422 33.5265 12.62 32.8749 11.4686L34.2221 9.39477C34.5899 8.82852 34.5103 8.07093 34.0329 7.59346L30.7402 4.30002C30.2627 3.82237 29.5049 3.74268 28.9387 4.11084L26.8785 5.44931C25.7223 4.78902 24.493 4.2778 23.2164 3.92643L22.7078 1.53074C22.5677 0.870086 21.9757 0.390461 21.3002 0.390461H16.6431C15.9676 0.390461 15.3756 0.869992 15.2354 1.53074L14.7268 3.92643C13.4503 4.27771 12.221 4.78893 11.0648 5.44931L9.00469 4.11093C8.43816 3.74277 7.68056 3.82255 7.203 4.30012L3.91031 7.59355C3.43294 8.07102 3.35334 8.82862 3.72112 9.39487L5.06831 11.4687C4.41703 12.6198 3.91312 13.8422 3.56728 15.1096L1.13991 15.6255C0.479438 15.766 0.000187397 16.358 0.000187397 17.0331V17.8077C0.000187397 18.0666 0.21 18.2765 0.468937 18.2765C0.727875 18.2765 0.937687 18.0666 0.937687 17.8077V17.0331C0.937687 16.7977 1.10475 16.5915 1.33481 16.5425L4.04456 15.9665C4.21931 15.9293 4.35778 15.7961 4.40166 15.6229C4.74956 14.2471 5.29453 12.9247 6.02166 11.6925C6.11203 11.5393 6.10791 11.3481 6.01106 11.1989L4.50731 8.88402C4.37916 8.68668 4.40681 8.42268 4.57322 8.25627L7.86591 4.96284C8.03222 4.79634 8.29641 4.76859 8.49375 4.89693L10.796 6.39271C10.9457 6.49002 11.1378 6.49387 11.2912 6.40237C12.5275 5.66605 13.8565 5.1133 15.2413 4.75977C15.4141 4.71562 15.5468 4.57734 15.5838 4.40287L16.1521 1.72537C16.2009 1.49512 16.4074 1.32796 16.6427 1.32796H21.2998C21.5352 1.32796 21.7416 1.49512 21.7904 1.72537L22.3587 4.40287C22.3958 4.57724 22.5285 4.71562 22.7012 4.75977C24.0859 5.1133 25.415 5.66605 26.6513 6.40237C26.8048 6.49387 26.9971 6.49002 27.1465 6.39271L29.4488 4.89693C29.6461 4.76877 29.9101 4.79634 30.0766 4.96293L33.3693 8.25637C33.5357 8.42277 33.5633 8.68677 33.4352 8.88412L31.9314 11.199C31.8346 11.3481 31.8305 11.5393 31.9208 11.6926C32.6481 12.925 33.1931 14.2474 33.5408 15.623C33.5846 15.7962 33.7231 15.9294 33.8979 15.9666L36.6076 16.5426C36.8378 16.5915 37.0048 16.7978 37.0048 17.0331V21.6895C37.0048 21.9249 36.8377 22.1312 36.6075 22.18L33.8766 22.76C33.7027 22.7969 33.5648 22.929 33.5201 23.101C33.1669 24.4657 32.6209 25.7749 31.8973 26.9918C31.8061 27.1452 31.8099 27.3371 31.9072 27.4867L33.435 29.8385C33.5633 30.0358 33.5355 30.2999 33.3692 30.4663L30.0766 33.7596C29.9102 33.9261 29.646 33.954 29.4487 33.8256L27.0834 32.2891C26.9344 32.1922 26.7433 32.188 26.5902 32.2783C25.3751 32.9939 24.0725 33.5326 22.7183 33.8795C22.5456 33.9237 22.413 34.0619 22.3761 34.2363L21.79 36.9973C21.7412 37.2276 21.5349 37.3946 21.2996 37.3946H16.6425C16.4071 37.3946 16.2008 37.2275 16.152 36.9972L15.5661 34.2363C15.529 34.062 15.3965 33.9237 15.224 33.8795C13.8697 33.5326 12.5669 32.9939 11.352 32.2783C11.1988 32.1881 11.0078 32.1923 10.8588 32.2891L8.49356 33.8256C8.29603 33.954 8.03194 33.9261 7.86572 33.7596L4.57303 30.4662C4.40672 30.2998 4.37897 30.0358 4.50712 29.8385L6.03506 27.4867C6.13228 27.3371 6.13612 27.1452 6.045 26.9918C5.32144 25.7748 4.77544 24.4656 4.42219 23.101C4.37756 22.9289 4.23966 22.7969 4.06575 22.76L1.33472 22.18C1.10456 22.1312 0.9375 21.9248 0.9375 21.6895V20.9006C0.9375 20.6418 0.727687 20.4319 0.46875 20.4319C0.209812 20.4319 0 20.6418 0 20.9006V21.6895C0 22.3649 0.479437 22.9569 1.14 23.0972L3.59016 23.6175C3.93994 24.8731 4.44394 26.0816 5.09184 27.2181L3.72169 29.3278C3.35381 29.8941 3.43341 30.6517 3.91087 31.1291L7.20356 34.4226C7.68122 34.9001 8.43881 34.9796 9.00506 34.6118L11.1295 33.2316C12.2624 33.8715 13.4641 34.3686 14.7097 34.7124L15.2359 37.1917C15.376 37.8525 15.9681 38.332 16.6434 38.332H21.3006C21.976 38.332 22.5681 37.8524 22.7081 37.1917L23.2343 34.7124C24.4797 34.3686 25.6815 33.8716 26.8145 33.2316L28.9388 34.6118C29.5049 34.9796 30.2627 34.9002 30.7404 34.4226L34.0331 31.1291C34.5105 30.6516 34.5899 29.8941 34.2221 29.3277L32.8514 27.2179C33.4992 26.0814 34.0032 24.8729 34.3531 23.6173L36.8032 23.097C37.4638 22.9567 37.9432 22.3647 37.9432 21.6893V17.033C37.9431 16.3579 37.4637 15.7658 36.8032 15.6254Z" fill="#2C2E3C"/>
<path d="M18.9643 29.0101C23.5688 29.0101 27.3149 25.2639 27.3149 20.6593C27.3149 16.8198 21.5564 7.60695 19.7914 4.87489C19.6092 4.5927 19.3 4.42423 18.9642 4.42423C18.6284 4.42423 18.3193 4.5927 18.137 4.87489C17.737 5.4942 17.1314 6.44717 16.4345 7.59448C13.8093 8.16036 11.4224 9.61611 9.70523 11.7021C7.94451 13.841 6.97485 16.547 6.97485 19.322C6.97485 25.9373 12.3568 31.3192 18.972 31.3192C25.5873 31.3192 30.9692 25.9373 30.9692 19.322C30.9692 14.9719 28.6059 10.9531 24.8015 8.83405C24.5754 8.70786 24.2899 8.78933 24.1639 9.01545C24.0379 9.24167 24.1191 9.52714 24.3453 9.65305C27.8528 11.6067 30.0316 15.3116 30.0316 19.322C30.0316 25.4203 25.0703 30.3816 18.9719 30.3816C12.8736 30.3816 7.91226 25.4203 7.91226 19.322C7.91226 16.7638 8.80598 14.2693 10.4289 12.2979C11.8168 10.612 13.6787 9.37339 15.7467 8.7417C13.4459 12.6313 10.6135 17.967 10.6135 20.6593C10.6135 25.2639 14.3596 29.0101 18.9643 29.0101ZM18.9245 5.38348C18.9284 5.37758 18.9386 5.36173 18.9642 5.36173C18.9898 5.36173 19.0001 5.37758 19.0039 5.38358C22.5686 10.9016 26.3774 17.8123 26.3774 20.6593C26.3774 24.747 23.0519 28.0726 18.9643 28.0726C14.8765 28.0726 11.551 24.747 11.551 20.6593C11.551 17.8128 15.3599 10.9019 18.9245 5.38348Z" fill="#2C2E3C"/>
</svg>
