<?xml version="1.0" encoding="UTF-8"?>
<svg width="600px" height="600px" viewBox="0 0 600 600" version="1.1" xmlns="http://www.w3.org/2000/svg" xmlns:xlink="http://www.w3.org/1999/xlink">
    <!-- Generator: Sketch 61 (89581) - https://sketch.com -->
    <title>illu/16-exterieur</title>
    <desc>Created with Sketch.</desc>
    <g id="illu/16-exterieur" stroke="none" stroke-width="1" fill="none" fill-rule="evenodd">
        <g id="plant" transform="translate(119.000000, 90.000000)">
            <path d="M292.923077,228.090154 C218.228769,302.785538 180.923077,228.090154 180.923077,228.090154 C180.923077,228.090154 218.228769,153.395846 292.923077,228.090154 Z M180.923077,185.013231 C180.923077,185.013231 143.617385,259.708615 68.9230769,185.013231 C143.617385,110.402923 180.923077,185.013231 180.923077,185.013231 Z M327.384615,52.4256923 C229.771231,150.123077 180.923077,52.4256923 180.923077,52.4256923 C180.923077,52.4256923 229.771231,-45.1866154 327.384615,52.4256923 Z M180.923077,52.4256923 C180.923077,52.4256923 132.074923,150.123077 34.4615385,52.4256923 C132.074923,-45.1866154 180.923077,52.4256923 180.923077,52.4256923 Z" id="Combined-Shape" fill="#00C3ED"></path>
            <path d="M267.076923,410.308769 L94.7692308,410.308769 C94.7692308,362.756154 133.370462,324.154923 180.923077,324.154923 C228.475692,324.154923 267.076923,362.756154 267.076923,410.308769 Z" id="Fill-7" fill="#C3C3C3"></path>
            <path d="M133.538462,393.078 C137.846154,397.385692 146.461538,397.385692 150.769231,393.078 C155.076923,388.770308 155.076923,380.154923 150.769231,375.847231 C146.461538,371.539538 137.846154,371.539538 133.538462,375.847231 C129.230769,380.154923 129.230769,388.770308 133.538462,393.078 Z" id="Fill-8" fill="#90989C"></path>
            <path d="M150.769231,367.231846 C154.966469,371.429085 163.581854,371.649992 168,367.231846 C172.418146,362.8137 172.307692,354.308769 168,350.001077 C163.692308,345.693385 155.076923,345.693385 150.769231,350.001077 C146.461538,354.308769 146.571992,363.034607 150.769231,367.231846 Z" id="Fill-9" fill="#90989C"></path>
            <path d="M176.615385,393.078 C180.923077,397.385692 189.538462,397.385692 193.846154,393.078 C198.153846,388.770308 198.153846,380.154923 193.846154,375.847231 C189.538462,371.539538 180.923077,371.539538 176.615385,375.847231 C172.307692,380.154923 172.307692,388.770308 176.615385,393.078 Z" id="Fill-10" fill="#90989C"></path>
            <path d="M193.846154,367.231846 C198.153846,371.539538 206.769231,371.539538 211.076923,367.231846 C215.384615,362.924154 215.384615,354.308769 211.076923,350.001077 C206.769231,345.693385 198.153846,345.693385 193.846154,350.001077 C189.538462,354.308769 189.538462,362.924154 193.846154,367.231846 Z" id="Fill-11" fill="#90989C"></path>
            <path d="M211.076923,393.078 C215.384615,397.385692 224,397.385692 228.307692,393.078 C232.615385,388.770308 232.615385,380.154923 228.307692,375.847231 C224,371.539538 215.384615,371.539538 211.076923,375.847231 C206.769231,380.154923 206.769231,388.770308 211.076923,393.078 Z" id="Fill-12" fill="#90989C"></path>
            <path d="M275.297077,401.693385 C271.186462,356.298923 234.932923,320.045385 189.538462,315.935846 L189.538462,252.994 C199.012154,261.748308 212.670769,269.901692 230.688769,269.901692 C252.324154,269.901692 275.313231,257.882154 299.014154,234.182308 C302.379538,230.816923 302.379538,225.360154 299.014154,221.994769 C275.313231,198.293846 252.324154,186.275385 230.688769,186.275385 C212.675077,186.275385 199.016462,194.428769 189.538462,203.186308 L189.538462,78.68 C201.561231,91.2670769 220.297538,104.459385 246.026308,104.462615 L246.039231,104.462615 C273.597692,104.462615 303.019231,89.0033846 333.48,58.5124615 C336.841077,55.1470769 336.841077,49.6956923 333.475692,46.3346154 C303.014923,15.8695385 273.593385,0.426461538 246.030615,0.426461538 C212.999231,0.426461538 191.494154,22.1372308 180.923077,36.4193846 C170.352,22.1372308 148.846923,0.426461538 115.815538,0.426461538 C88.2527692,0.426461538 58.8312308,15.8695385 28.3704615,46.3346154 C25.0050769,49.6956923 25.0050769,55.1470769 28.3661538,58.5124615 C58.8269231,89.0033846 88.2527692,104.462615 115.815538,104.462615 C141.548615,104.462615 160.284923,91.2703077 172.307692,78.6843077 L172.307692,160.126615 C162.834,151.380923 149.175385,143.236154 131.157385,143.236154 C109.522,143.236154 86.5361538,155.242769 62.832,178.917846 C61.2166154,180.533231 60.3076923,182.724769 60.3076923,185.008923 C60.3076923,187.294154 61.2123077,189.49 62.832,191.105385 C86.5329231,214.805231 109.522,226.824769 131.157385,226.824769 C149.171077,226.824769 162.829692,218.671385 172.307692,209.917077 L172.307692,315.935846 C126.913231,320.045385 90.6596923,356.298923 86.5490769,401.693385 L0,401.693385 L0,418.924154 L361.846154,418.924154 L361.846154,401.693385 L275.297077,401.693385 Z M230.688769,203.506154 C245.812,203.506154 262.524769,211.768308 280.454462,228.090154 C262.524769,244.408769 245.812,252.670923 230.688769,252.670923 C215.843385,252.670923 204.75,244.345231 197.695077,236.705538 L197.699385,219.474769 C204.758615,211.831846 215.847692,203.506154 230.688769,203.506154 Z M246.030615,17.6572308 C267.081231,17.6572308 290.252308,29.3472308 314.991385,52.4256923 C290.252308,75.5289231 267.085538,87.2318462 246.039231,87.2286161 C222.708769,87.2286161 206.230769,72.3358462 197.076923,61.0410769 L197.085538,43.8103077 C206.243692,32.5198462 222.713077,17.6572308 246.030615,17.6572308 Z M115.815538,87.2318462 C94.7649231,87.2318462 71.5938462,75.5289231 46.8547692,52.43 C71.5938462,29.3472308 94.7649231,17.6572308 115.815538,17.6572308 C139.137385,17.6572308 155.611077,32.5241538 164.760615,43.8103077 L164.836,61.0410769 C155.732769,72.3401538 139.293538,87.2318462 115.815538,87.2318462 Z M131.157385,209.594 C116.038462,209.594 99.3246154,201.336154 81.396,185.017538 C99.3246154,168.720462 116.034154,160.466923 131.157385,160.466923 C145.994154,160.466923 157.078923,168.771077 164.133846,176.397846 L164.146769,193.628615 C157.087538,201.272615 145.998462,209.594 131.157385,209.594 Z M180.923077,332.770308 C220.764923,332.770308 253.682154,362.979077 257.982308,401.693385 L103.863846,401.693385 C108.164,362.979077 141.081231,332.770308 180.923077,332.770308 Z" id="Fill-13" fill="#01384D"></path>
        </g>
    </g>
</svg>
