<svg width="48" height="48" viewBox="0 0 48 48" fill="none" xmlns="http://www.w3.org/2000/svg">
  <g opacity="0.1">
    <path d="M5.9623 10.6104C5.47292 10.6104 5.07617 11.0071 5.07617 11.4964V34.8939C5.07617 35.3833 5.47292 35.78 5.9623 35.78C6.45167 35.78 6.84842 35.3833 6.84842 34.8939V11.4964C6.84842 11.007 6.45167 10.6104 5.9623 10.6104Z" fill="#2934D0"/>
    <path d="M11.3051 28.8944C11.7944 28.8944 12.1912 28.4977 12.1912 28.0084V11.4964C12.1912 11.007 11.7944 10.6104 11.3051 10.6104C10.8157 10.6104 10.4189 11.0071 10.4189 11.4964V28.0083C10.419 28.4977 10.8157 28.8944 11.3051 28.8944Z" fill="#2934D0"/>
    <path d="M15.8747 28.0083V11.4964C15.8747 11.007 15.4779 10.6104 14.9887 10.6104C14.4993 10.6104 14.1025 11.0071 14.1025 11.4964V28.0083C14.1025 28.4977 14.4993 28.8943 14.9887 28.8943C15.478 28.8944 15.8747 28.4977 15.8747 28.0083Z" fill="#2934D0"/>
    <path d="M42.0844 35.7801C42.5737 35.7801 42.9705 35.3834 42.9705 34.894V11.4964C42.9705 11.007 42.5737 10.6104 42.0844 10.6104C41.595 10.6104 41.1982 11.0071 41.1982 11.4964V34.8939C41.1982 35.3833 41.595 35.7801 42.0844 35.7801Z" fill="#2934D0"/>
    <path d="M44.4309 42.1518L36.2672 33.988C38.2557 31.3903 38.709 27.995 37.6274 25.0332V11.4964C37.6274 11.007 37.2306 10.6104 36.7413 10.6104C36.2519 10.6104 35.8551 11.0071 35.8551 11.4964V22.053C35.7223 21.9022 35.5846 21.7541 35.4405 21.61C34.9749 21.1445 34.4727 20.7381 33.9431 20.3904V11.4964C33.9431 11.007 33.5463 10.6104 33.057 10.6104C32.5676 10.6104 32.1708 11.0071 32.1708 11.4964V19.4808C30.9604 19.0146 29.6734 18.8075 28.3948 18.8593V11.4964C28.3948 11.007 27.998 10.6104 27.5087 10.6104C27.0193 10.6104 26.6225 11.0071 26.6225 11.4964V19.1005C26.0315 19.2389 25.4513 19.435 24.8908 19.6889V11.4964C24.8908 11.007 24.494 10.6104 24.0047 10.6104C23.5153 10.6104 23.1185 11.0071 23.1185 11.4964V20.7409C22.7702 21.0035 22.4355 21.2927 22.1181 21.61C21.7837 21.9444 21.4801 22.298 21.2064 22.6667V11.4964C21.2064 11.007 20.8097 10.6104 20.3203 10.6104C19.8309 10.6104 19.4342 11.0071 19.4342 11.4964V27.0835C19.2155 28.8139 19.4765 30.5931 20.2178 32.2061C19.659 32.403 19.2578 32.9342 19.2578 33.5604C19.2578 34.3539 19.9012 34.9974 20.6948 34.9974C21.1105 34.9974 21.4837 34.8198 21.7461 34.5377C21.8658 34.6718 21.9894 34.8035 22.1181 34.9321C25.4967 38.3107 30.8029 38.5859 34.4962 35.7587L42.66 43.9224C43.1489 44.4114 43.9416 44.4114 44.4306 43.9224C44.9198 43.4334 44.9198 42.6408 44.4309 42.1518Z" fill="#2934D0"/>
    <path d="M12.0235 34.5738C12.5846 34.0127 12.5846 33.103 12.0235 32.5419C11.4624 31.9808 10.5526 31.9808 9.99155 32.5419C9.43045 33.103 9.43045 34.0127 9.99155 34.5738C10.5526 35.1349 11.4624 35.1349 12.0235 34.5738Z" fill="#2934D0"/>
    <path d="M16.194 34.9464C16.9662 34.7638 17.4442 33.9899 17.2617 33.2177C17.0791 32.4454 16.3052 31.9674 15.533 32.15C14.7608 32.3325 14.2827 33.1065 14.4653 33.8787C14.6478 34.6509 15.4218 35.1289 16.194 34.9464Z" fill="#2934D0"/>
  </g>
  <path d="M21.7061 32.2315C22.2672 31.6704 22.2672 30.7607 21.7061 30.1996C21.145 29.6385 20.2353 29.6385 19.6742 30.1996C19.1131 30.7607 19.1131 31.6704 19.6742 32.2315C20.2353 32.7926 21.145 32.7926 21.7061 32.2315Z" fill="white"/>
  <path d="M8.68485 37.4548C8.33675 37.4548 7.98866 37.3223 7.72372 37.0573C7.19366 36.5273 7.19366 35.6648 7.72372 35.1349C8.25369 34.6047 9.11628 34.6049 9.64606 35.1349C10.1761 35.6648 10.1761 36.5273 9.64606 37.0573C9.38103 37.3223 9.03294 37.4548 8.68485 37.4548ZM8.68485 35.6743C8.57694 35.6743 8.46884 35.7154 8.38653 35.7976C8.22209 35.9621 8.22209 36.2298 8.38653 36.3943C8.55125 36.5588 8.81863 36.5586 8.98316 36.3943C9.1476 36.2298 9.1476 35.9621 8.98316 35.7976C8.90085 35.7154 8.79285 35.6743 8.68485 35.6743Z" fill="#6583FE"/>
  <path d="M6.18357 39.2678C6.06366 39.2678 5.94357 39.222 5.85216 39.1305L5.29295 38.5713L4.73373 39.1305C4.55082 39.3135 4.25382 39.3135 4.07091 39.1305C3.88782 38.9475 3.88782 38.6506 4.07091 38.4676L4.96154 37.577C5.14445 37.3939 5.44145 37.3939 5.62435 37.577L6.51498 38.4676C6.69807 38.6506 6.69807 38.9475 6.51498 39.1305C6.42357 39.222 6.30348 39.2678 6.18357 39.2678Z" fill="#6583FE"/>
  <path d="M29.414 5.98386C29.2941 5.98386 29.174 5.93811 29.0826 5.84652L28.5234 5.28739L27.9642 5.84652C27.7813 6.02961 27.4843 6.02961 27.3014 5.84652C27.1183 5.66352 27.1183 5.36671 27.3014 5.18371L28.192 4.29308C28.3749 4.10999 28.6719 4.10999 28.8548 4.29308L29.7454 5.18371C29.9285 5.36671 29.9285 5.66352 29.7454 5.84652C29.6539 5.93811 29.5339 5.98386 29.414 5.98386Z" fill="#6583FE"/>
  <path d="M5.96327 33.4364C5.4739 33.4364 5.07715 33.0397 5.07715 32.5503V9.15273C5.07715 8.66335 5.4739 8.2666 5.96327 8.2666C6.45265 8.2666 6.8494 8.66335 6.8494 9.15273V32.5503C6.8494 33.0397 6.45265 33.4364 5.96327 33.4364Z" fill="white"/>
  <path d="M11.306 26.5508C10.8167 26.5508 10.4199 26.154 10.4199 25.6646V9.15273C10.4199 8.66335 10.8167 8.2666 11.306 8.2666C11.7954 8.2666 12.1922 8.66335 12.1922 9.15273V25.6646C12.1922 26.154 11.7954 26.5508 11.306 26.5508Z" fill="white"/>
  <path d="M14.9896 26.5508C14.5003 26.5508 14.1035 26.154 14.1035 25.6646V9.15273C14.1035 8.66335 14.5003 8.2666 14.9896 8.2666C15.479 8.2666 15.8758 8.66335 15.8758 9.15273V25.6646C15.8757 26.154 15.479 26.5508 14.9896 26.5508Z" fill="white"/>
  <path d="M42.0853 33.4364C42.5747 33.4364 42.9715 33.0397 42.9715 32.5503V9.15273C42.9715 8.66335 42.5747 8.2666 42.0853 8.2666C41.596 8.2666 41.1992 8.66335 41.1992 9.15273V32.5503C41.1992 33.0397 41.596 33.4364 42.0853 33.4364Z" fill="white"/>
  <path d="M36.7426 26.5508C37.2319 26.5508 37.6287 26.154 37.6287 25.6646V9.15273C37.6287 8.66335 37.2319 8.2666 36.7426 8.2666C36.2532 8.2666 35.8564 8.66335 35.8564 9.15273V25.6646C35.8564 26.154 36.2532 26.5508 36.7426 26.5508Z" fill="white"/>
  <path d="M33.058 26.5508C33.5474 26.5508 33.9441 26.154 33.9441 25.6646V9.15273C33.9441 8.66335 33.5474 8.2666 33.058 8.2666C32.5686 8.2666 32.1719 8.66335 32.1719 9.15273V25.6646C32.1719 26.154 32.5686 26.5508 33.058 26.5508Z" fill="white"/>
  <path d="M20.3217 26.5508C19.8323 26.5508 19.4355 26.154 19.4355 25.6646V9.15273C19.4355 8.66335 19.8323 8.2666 20.3217 8.2666C20.811 8.2666 21.2078 8.66335 21.2078 9.15273V25.6646C21.2077 26.154 20.811 26.5508 20.3217 26.5508Z" fill="white"/>
  <path d="M24.0062 26.5508C23.5169 26.5508 23.1201 26.154 23.1201 25.6646V9.15273C23.1201 8.66335 23.5169 8.2666 24.0062 8.2666C24.4956 8.2666 24.8924 8.66335 24.8924 9.15273V25.6646C24.8924 26.154 24.4956 26.5508 24.0062 26.5508Z" fill="white"/>
  <path d="M27.5101 26.5508C27.0208 26.5508 26.624 26.154 26.624 25.6646V9.15273C26.624 8.66335 27.0208 8.2666 27.5101 8.2666C27.9995 8.2666 28.3963 8.66335 28.3963 9.15273V25.6646C28.3963 26.154 27.9995 26.5508 27.5101 26.5508Z" fill="white"/>
  <path d="M5.07715 13.3223H6.8493V15.2703H5.07715V13.3223Z" fill="#6583FE"/>
  <path d="M10.4199 13.3223H12.1921V15.2703H10.4199V13.3223Z" fill="#6583FE"/>
  <path d="M14.1035 13.3223H15.8757V15.2703H14.1035V13.3223Z" fill="#6583FE"/>
  <path d="M41.1992 13.3223H42.9714V15.2703H41.1992V13.3223Z" fill="#6583FE"/>
  <path d="M35.8564 13.3223H37.6286V15.2703H35.8564V13.3223Z" fill="#6583FE"/>
  <path d="M32.1719 13.3223H33.944V15.2703H32.1719V13.3223Z" fill="#6583FE"/>
  <path d="M19.4355 13.3223H21.2077V15.2703H19.4355V13.3223Z" fill="#6583FE"/>
  <path d="M23.1201 13.3223H24.8923V15.2703H23.1201V13.3223Z" fill="#6583FE"/>
  <path d="M26.624 13.3223H28.3962V15.2703H26.624V13.3223Z" fill="#6583FE"/>
  <path d="M5.96327 33.9051C5.21618 33.9051 4.6084 33.2973 4.6084 32.5502V9.15263C4.6084 8.40554 5.21618 7.79785 5.96327 7.79785C6.71037 7.79785 7.31805 8.40554 7.31805 9.15263V19.3353C7.31805 19.5942 7.10824 19.804 6.8493 19.804C6.59037 19.804 6.38055 19.5942 6.38055 19.3353V9.15263C6.38055 8.92257 6.19334 8.73535 5.96327 8.73535C5.73312 8.73535 5.5459 8.92257 5.5459 9.15263V32.5502C5.5459 32.7804 5.73312 32.9676 5.96327 32.9676C6.19334 32.9676 6.38055 32.7804 6.38055 32.5502V22.0778C6.38055 21.8188 6.59037 21.609 6.8493 21.609C7.10824 21.609 7.31805 21.8188 7.31805 22.0778V32.5502C7.31805 33.2973 6.71027 33.9051 5.96327 33.9051Z" fill="#2934D0"/>
  <path d="M11.306 27.0194C10.559 27.0194 9.95117 26.4116 9.95117 25.6645V9.15263C9.95117 8.40554 10.559 7.79785 11.306 7.79785C12.0531 7.79785 12.6608 8.40554 12.6608 9.15263V25.6645C12.6608 26.4116 12.0531 27.0194 11.306 27.0194ZM11.306 8.73535C11.0759 8.73535 10.8887 8.92257 10.8887 9.15263V25.6645C10.8887 25.8947 11.0759 26.0819 11.306 26.0819C11.5361 26.0819 11.7233 25.8947 11.7233 25.6645V9.15263C11.7233 8.92257 11.5361 8.73535 11.306 8.73535Z" fill="#2934D0"/>
  <path d="M14.9895 27.0194C14.2425 27.0194 13.6348 26.4116 13.6348 25.6645V9.15263C13.6348 8.40554 14.2425 7.79785 14.9895 7.79785C15.7366 7.79785 16.3443 8.40554 16.3443 9.15263V25.6645C16.3443 26.4116 15.7365 27.0194 14.9895 27.0194ZM14.9895 8.73535C14.7595 8.73535 14.5723 8.92257 14.5723 9.15263V25.6645C14.5723 25.8947 14.7595 26.0819 14.9895 26.0819C15.2196 26.0819 15.4068 25.8947 15.4068 25.6645V9.15263C15.4068 8.92257 15.2196 8.73535 14.9895 8.73535Z" fill="#2934D0"/>
  <path d="M42.0853 33.9051C41.3382 33.9051 40.7305 33.2973 40.7305 32.5502V9.15263C40.7305 8.40554 41.3382 7.79785 42.0853 7.79785C42.8324 7.79785 43.4401 8.40554 43.4401 9.15263V32.5502C43.4402 33.2973 42.8324 33.9051 42.0853 33.9051ZM42.0853 8.73535C41.8552 8.73535 41.668 8.92257 41.668 9.15263V32.5502C41.668 32.7804 41.8552 32.9676 42.0853 32.9676C42.3154 32.9676 42.5026 32.7804 42.5026 32.5502V9.15263C42.5027 8.92257 42.3154 8.73535 42.0853 8.73535Z" fill="#2934D0"/>
  <path d="M44.432 41.5788C43.9431 42.0677 43.1504 42.0677 42.6614 41.5788L33.4678 32.3852L35.2383 30.6145L44.4319 39.8081C44.9209 40.2971 44.9209 41.0898 44.432 41.5788Z" fill="white"/>
  <path d="M39.7314 38.6488L42.6614 41.5788C43.1503 42.0677 43.9431 42.0677 44.432 41.5788C44.9209 41.0898 44.9209 40.2971 44.432 39.8081L41.502 36.8782L39.7314 38.6488Z" fill="#6583FE"/>
  <path d="M28.7804 35.3475C33.983 35.3475 38.2005 31.13 38.2005 25.9274C38.2005 20.7248 33.983 16.5073 28.7804 16.5073C23.5779 16.5073 19.3604 20.7248 19.3604 25.9274C19.3604 31.13 23.5779 35.3475 28.7804 35.3475Z" fill="white"/>
  <path d="M28.7811 33.1772C32.7851 33.1772 36.031 29.9314 36.031 25.9274C36.031 21.9234 32.7851 18.6775 28.7811 18.6775C24.7771 18.6775 21.5312 21.9234 21.5312 25.9274C21.5312 29.9314 24.7771 33.1772 28.7811 33.1772Z" fill="#6583FE"/>
  <path d="M35.3253 22.8064V27.2482C35.3253 27.8632 34.8275 28.361 34.2134 28.361C33.5984 28.361 33.1006 27.8632 33.1006 27.2482V20.1045C33.3818 20.3136 33.6518 20.5461 33.9068 20.8011C34.5068 21.4011 34.9803 22.0807 35.3253 22.8064Z" fill="white"/>
  <path d="M23.963 20.5112V27.2481C23.963 27.8631 23.4652 28.3609 22.8511 28.3609C22.2371 28.3609 21.7393 27.8631 21.7393 27.2481V24.1975C22.0439 22.9525 22.6824 21.7731 23.6546 20.8009C23.7549 20.7006 23.858 20.6031 23.963 20.5112Z" fill="white"/>
  <path d="M28.3614 18.6907V27.2482C28.3614 27.8632 27.8636 28.361 27.2486 28.361C26.6345 28.361 26.1367 27.8632 26.1367 27.2482V19.1754C26.853 18.895 27.6039 18.7329 28.3614 18.6907Z" fill="white"/>
  <path d="M44.7637 39.4766L36.8839 31.5969C38.7411 28.9451 39.1458 25.5787 38.0979 22.6156V9.15254C38.0979 8.40554 37.4898 7.79785 36.7423 7.79785C36.3808 7.79785 36.0406 7.93885 35.7847 8.19479C35.5286 8.45063 35.3876 8.79076 35.3876 9.15254V18.5693C35.0772 18.2899 34.7519 18.0322 34.4135 17.7968V9.15254C34.4135 8.40554 33.8058 7.79785 33.0588 7.79785C32.6967 7.79785 32.3562 7.93885 32.1001 8.19488C31.8442 8.45073 31.7032 8.79085 31.7032 9.15254V16.4755C30.795 16.196 29.8413 16.0477 28.8653 16.0395V9.15254C28.8653 8.79094 28.7243 8.45082 28.4684 8.19488C28.2124 7.93885 27.8723 7.79785 27.5107 7.79785C26.7631 7.79785 26.1551 8.40554 26.1551 9.15254V16.3892C25.8864 16.4627 25.6216 16.5479 25.3609 16.6437V9.15254C25.3609 8.79094 25.2199 8.45082 24.964 8.19488C24.708 7.93885 24.3679 7.79785 24.0062 7.79785C23.2592 7.79785 22.6516 8.40554 22.6516 9.15254V18.166C22.3516 18.4039 22.0632 18.6601 21.7884 18.9349C21.7502 18.973 21.714 19.0124 21.6766 19.051V9.15254C21.6766 8.79094 21.5356 8.45082 21.2797 8.19488C21.0238 7.93885 20.6836 7.79785 20.322 7.79785C19.575 7.79785 18.9673 8.40554 18.9673 9.15254V24.7413C18.9673 24.7418 18.9674 24.7421 18.9674 24.7426C18.7698 26.3934 18.9868 28.085 19.6183 29.6467C19.1101 29.9965 18.791 30.5797 18.791 31.2165C18.791 32.2674 19.646 33.1224 20.697 33.1224C21.0555 33.1224 21.4035 33.0183 21.7028 32.8319C21.7314 32.8612 21.7594 32.8908 21.7884 32.9198C23.301 34.4323 25.2161 35.3967 27.3267 35.7089C27.5829 35.7463 27.821 35.5698 27.859 35.3138C27.8969 35.0576 27.72 34.8194 27.4638 34.7814C25.5538 34.4989 23.8204 33.626 22.4512 32.2569C18.9611 28.7666 18.9611 23.0877 22.4512 19.5976C24.1419 17.907 26.3898 16.9759 28.7809 16.9759C31.1719 16.9759 33.4198 17.907 35.1105 19.5976C38.6006 23.0878 38.6006 28.7666 35.1105 32.2569C33.734 33.6332 31.9912 34.5077 30.0705 34.7858C29.8143 34.8229 29.6367 35.0606 29.6738 35.3169C29.7075 35.5502 29.908 35.7185 30.1371 35.7185C30.1594 35.7185 30.182 35.7168 30.2049 35.7135C31.7519 35.4895 33.1935 34.914 34.4507 34.0304L42.3302 41.91C42.6657 42.2454 43.1063 42.4131 43.547 42.4131C43.9877 42.4131 44.4284 42.2453 44.7638 41.9099C45.4347 41.2392 45.4347 40.1475 44.7637 39.4766ZM19.9048 9.15254C19.9048 8.92248 20.0919 8.73535 20.322 8.73535C20.4331 8.73535 20.5379 8.77885 20.6169 8.85779C20.6957 8.93673 20.7392 9.04145 20.7392 9.15263V20.1734C20.4195 20.6198 20.1412 21.0867 19.9049 21.5694V9.15254H19.9048ZM20.0233 30.5218C20.3141 31.077 20.6617 31.6098 21.0652 32.1124C20.9504 32.1595 20.8262 32.185 20.697 32.185C20.163 32.185 19.7285 31.7506 19.7285 31.2166C19.7285 30.9492 19.8393 30.7006 20.0233 30.5218ZM32.6407 9.15254C32.6407 9.04135 32.6842 8.93663 32.763 8.8577C32.8421 8.77876 32.9471 8.73526 33.0588 8.73526C33.2889 8.73526 33.476 8.92238 33.476 9.15245V17.2193C33.2038 17.0721 32.925 16.9382 32.6407 16.8176V9.15254ZM27.0926 9.15254C27.0926 8.92248 27.2802 8.73535 27.5107 8.73535C27.6219 8.73535 27.7265 8.77885 27.8055 8.85779C27.8844 8.93673 27.9279 9.04145 27.9279 9.15263V16.0754C27.6469 16.0993 27.3682 16.1344 27.0927 16.1814V9.15254H27.0926ZM23.5891 9.15254C23.5891 8.92248 23.7763 8.73535 24.0062 8.73535C24.1173 8.73535 24.2221 8.77885 24.3012 8.85779C24.38 8.93673 24.4235 9.04145 24.4235 9.15263V17.0454C24.1386 17.1855 23.8603 17.3396 23.5892 17.5074V9.15254H23.5891ZM36.4475 8.8577C36.5265 8.77876 36.6312 8.73526 36.7424 8.73526C36.9729 8.73526 37.1605 8.92238 37.1605 9.15245V20.6741C36.9131 20.2794 36.6337 19.8994 36.3252 19.5358V9.15254C36.3251 9.04135 36.3686 8.93673 36.4475 8.8577ZM44.1008 41.2473C43.7954 41.5525 43.2984 41.5525 42.993 41.2473L35.1978 33.4521C35.3955 33.2829 35.5875 33.1057 35.7734 32.9199C35.9597 32.7334 36.1369 32.5412 36.3053 32.344L44.1008 40.1395C44.4061 40.4449 44.4061 40.9419 44.1008 41.2473Z" fill="#2934D0"/>
  <path d="M12.0244 32.2303C12.5855 31.6692 12.5855 30.7595 12.0244 30.1984C11.4633 29.6373 10.5536 29.6373 9.99252 30.1984C9.43142 30.7595 9.43142 31.6692 9.99252 32.2303C10.5536 32.7914 11.4633 32.7914 12.0244 32.2303Z" fill="white"/>
  <path d="M16.8711 32.2308C17.4322 31.6697 17.4322 30.76 16.8711 30.1989C16.31 29.6378 15.4003 29.6378 14.8392 30.1989C14.2781 30.76 14.2781 31.6697 14.8392 32.2308C15.4003 32.7919 16.31 32.7919 16.8711 32.2308Z" fill="white"/>
  <path d="M11.0132 33.1222C9.96233 33.1222 9.10742 32.2673 9.10742 31.2165C9.10742 30.1657 9.96233 29.3108 11.0132 29.3108C12.064 29.3108 12.9189 30.1657 12.9189 31.2165C12.9189 32.2673 12.064 33.1222 11.0132 33.1222ZM11.0132 30.2482C10.4793 30.2482 10.0449 30.6825 10.0449 31.2164C10.0449 31.7503 10.4793 32.1846 11.0132 32.1846C11.5471 32.1846 11.9814 31.7503 11.9814 31.2164C11.9814 30.6825 11.5471 30.2482 11.0132 30.2482Z" fill="#2934D0"/>
  <path d="M15.8608 33.1222C14.81 33.1222 13.9551 32.2673 13.9551 31.2165C13.9551 30.1657 14.81 29.3108 15.8608 29.3108C16.9116 29.3108 17.7665 30.1657 17.7665 31.2165C17.7665 32.2673 16.9116 33.1222 15.8608 33.1222ZM15.8608 30.2482C15.3269 30.2482 14.8926 30.6825 14.8926 31.2164C14.8926 31.7503 15.3269 32.1846 15.8608 32.1846C16.3946 32.1846 16.829 31.7503 16.829 31.2164C16.829 30.6825 16.3946 30.2482 15.8608 30.2482Z" fill="#2934D0"/>
  <path d="M26.3518 32.7586C25.3665 32.4108 24.4421 31.8417 23.6537 31.0533C23.5421 30.9417 23.4362 30.8283 23.335 30.712C23.5468 30.6483 23.7718 30.6145 24.0053 30.6145C25.2353 30.6145 26.245 31.5567 26.3518 32.7586Z" fill="white"/>
  <path d="M35.8234 42.6468C35.4753 42.6468 35.1273 42.5144 34.8623 42.2493C34.3324 41.7194 34.3324 40.857 34.8623 40.327C35.3923 39.7968 36.2548 39.797 36.7847 40.327C37.3147 40.857 37.3147 41.7194 36.7847 42.2493C36.5197 42.5144 36.1716 42.6468 35.8234 42.6468ZM35.8234 40.8665C35.7155 40.8665 35.6074 40.9076 35.5251 40.9898C35.3607 41.1543 35.3607 41.4219 35.5251 41.5864C35.6898 41.751 35.9572 41.7508 36.1218 41.5864C36.2862 41.4219 36.2862 41.1543 36.1218 40.9898C36.0395 40.9077 35.9315 40.8665 35.8234 40.8665Z" fill="#6583FE"/>
  <path d="M23.8399 6.42908C23.4768 6.42908 23.1353 6.28761 22.8785 6.03083C22.6218 5.77424 22.4805 5.4328 22.4805 5.0697C22.4805 4.70661 22.6218 4.36517 22.8786 4.10848C23.4085 3.57842 24.2712 3.57842 24.8011 4.10848C25.0579 4.36517 25.1992 4.70661 25.1992 5.0697C25.1992 5.4328 25.0579 5.77424 24.8011 6.03093C24.5444 6.28761 24.2029 6.42908 23.8399 6.42908ZM23.8399 4.64802C23.7319 4.64802 23.6238 4.68917 23.5414 4.7713C23.4618 4.85108 23.418 4.95692 23.418 5.0697C23.418 5.18239 23.4618 5.28824 23.5414 5.36792C23.6212 5.4478 23.7271 5.49158 23.8399 5.49158C23.9525 5.49158 24.0585 5.44771 24.1382 5.36802C24.2179 5.28824 24.2617 5.18249 24.2617 5.0697C24.2617 4.95702 24.2179 4.85108 24.1383 4.7713C24.0559 4.68917 23.9479 4.64802 23.8399 4.64802Z" fill="#6583FE"/>
  <path d="M28.7805 33.6457C26.7187 33.6457 24.7803 32.8429 23.3225 31.3849C20.3131 28.3756 20.3131 23.4788 23.3225 20.4693C26.3319 17.4599 31.2287 17.4597 34.2383 20.4693C37.2477 23.4788 37.2477 28.3755 34.2383 31.3849C32.7805 32.8428 30.8421 33.6457 28.7805 33.6457ZM28.7804 19.1493C27.0438 19.1493 25.3074 19.8102 23.9853 21.1321C21.3415 23.7761 21.3415 28.0781 23.9853 30.722C26.6293 33.3658 30.9313 33.366 33.5754 30.722C36.2193 28.0781 36.2193 23.7761 33.5754 21.1321C32.2534 19.8102 30.517 19.1493 28.7804 19.1493Z" fill="#2934D0"/>
</svg>
