<svg width="40" height="41" viewBox="0 0 40 41" fill="none" xmlns="http://www.w3.org/2000/svg">
<path opacity="0.1" d="M38.75 6.19415V30.0301C38.75 30.8063 38.12 31.4363 37.3438 31.4363H2.65625C1.88 31.4363 1.25 30.8063 1.25 30.0301V6.19415C1.25 5.4179 1.88 4.7879 2.65625 4.7879H37.3438C38.12 4.7879 38.75 5.4179 38.75 6.19415Z" fill="#2C2E3C"/>
<path d="M25.3166 40.2213H14.6833L16.8098 31.7928H23.1901L25.3166 40.2213Z" fill="white"/>
<path d="M38.7495 8.16281V31.9988C38.7495 32.775 38.1195 33.405 37.3433 33.405H2.65576C1.87951 33.405 1.24951 32.775 1.24951 31.9988V8.16281C1.24951 7.38656 1.87951 6.75656 2.65576 6.75656H37.3433C38.1195 6.75656 38.7495 7.38647 38.7495 8.16281Z" fill="white"/>
<path d="M37.3434 6.75656H30.9009V33.405H37.3434C38.1196 33.405 38.7496 32.775 38.7496 31.9988V8.16281C38.7496 7.38647 38.1196 6.75656 37.3434 6.75656Z" fill="#00C3ED"/>
<path d="M20 14.9591L11.9375 21.7685H13.8125C13.9678 21.7685 14.0938 21.8944 14.0938 22.0497V29.5358H25.9063V22.0497C25.9063 21.8944 26.0322 21.7685 26.1875 21.7685H28.0625L20 14.9591Z" fill="#00C3ED"/>
<path d="M28.0624 22.2371C27.9555 22.2371 27.8481 22.2008 27.7601 22.1265L20 15.5726L12.24 22.1265C12.0422 22.2935 11.7464 22.2687 11.5794 22.0708C11.4123 21.873 11.4373 21.5772 11.6351 21.4102L19.6976 14.6008C19.8723 14.4534 20.1278 14.4534 20.3025 14.6008L28.365 21.4102C28.5628 21.5772 28.5876 21.873 28.4207 22.0708C28.3279 22.1807 28.1956 22.2371 28.0624 22.2371Z" fill="#2C2E3C"/>
<path d="M20.4062 29.5358H16.4688V23.1922C16.4688 22.9334 16.6787 22.7235 16.9375 22.7235H19.9375C20.1963 22.7235 20.4062 22.9334 20.4062 23.1922V29.5358Z" fill="white"/>
<path d="M22.7432 25.0985C23.399 25.0985 23.9307 24.5668 23.9307 23.9109C23.9307 23.2551 23.399 22.7234 22.7432 22.7234C22.0873 22.7234 21.5557 23.2551 21.5557 23.9109C21.5557 24.5668 22.0873 25.0985 22.7432 25.0985Z" fill="white"/>
<path d="M38.75 11.273V8.16319C38.75 7.38657 38.1204 6.75694 37.3438 6.75694H2.65625C1.87963 6.75694 1.25 7.38657 1.25 8.16319V11.273H38.75Z" fill="white"/>
<path d="M1.25 28.6809V31.9987C1.25 32.7754 1.87963 33.405 2.65625 33.405H37.3438C38.1204 33.405 38.75 32.7754 38.75 31.9987V28.6809H1.25Z" fill="white"/>
<path d="M4.82007 9.49049C5.07891 9.49049 5.28882 9.28068 5.28882 9.02174V9.00806C5.28882 8.74912 5.07891 8.53931 4.82007 8.53931C4.56122 8.53931 4.35132 8.74912 4.35132 9.00806V9.02174C4.35132 9.28059 4.56122 9.49049 4.82007 9.49049Z" fill="#2C2E3C"/>
<path d="M6.63184 9.49049C6.89068 9.49049 7.10059 9.28068 7.10059 9.02174V9.00806C7.10059 8.74912 6.89068 8.53931 6.63184 8.53931C6.37299 8.53931 6.16309 8.74912 6.16309 9.00806V9.02174C6.16309 9.28059 6.3729 9.49049 6.63184 9.49049Z" fill="#2C2E3C"/>
<path d="M8.4436 9.49049C8.70245 9.49049 8.91235 9.28068 8.91235 9.02174V9.00806C8.91235 8.74912 8.70245 8.53931 8.4436 8.53931C8.18476 8.53931 7.97485 8.74912 7.97485 9.00806V9.02174C7.97485 9.28059 8.18476 9.49049 8.4436 9.49049Z" fill="#2C2E3C"/>
<path d="M37.3438 6.28809H2.65625C1.62238 6.28809 0.78125 7.12921 0.78125 8.16308V31.9988C0.78125 33.0327 1.62238 33.8738 2.65625 33.8738H15.8013L14.3183 39.752H12.8812C12.6223 39.752 12.4124 39.9618 12.4124 40.2208C12.4124 40.4797 12.6223 40.6895 12.8812 40.6895H27.1188C27.3777 40.6895 27.5876 40.4797 27.5876 40.2208C27.5876 39.9618 27.3777 39.752 27.1188 39.752H25.6816L24.1986 33.8738H27.4537C27.7125 33.8738 27.9224 33.664 27.9224 33.4051C27.9224 33.1461 27.7125 32.9363 27.4537 32.9363H2.65625C2.13931 32.9363 1.71875 32.5158 1.71875 31.9988V29.1498H38.2813V31.9988C38.2813 32.5158 37.8607 32.9363 37.3438 32.9363H30.0356C29.7767 32.9363 29.5668 33.1461 29.5668 33.4051C29.5668 33.664 29.7767 33.8738 30.0356 33.8738H37.3438C38.3776 33.8738 39.2188 33.0327 39.2188 31.9988V8.16308C39.2188 7.1293 38.3776 6.28809 37.3438 6.28809ZM24.7147 39.7519H15.2851L16.7682 33.8737H23.2318L24.7147 39.7519ZM1.71875 28.2122V8.16308C1.71875 7.64615 2.13931 7.22559 2.65625 7.22559H37.3438C37.8607 7.22559 38.2813 7.64615 38.2813 8.16308V10.8041H3.83188C3.57303 10.8041 3.36313 11.0139 3.36313 11.2729C3.36313 11.5318 3.57303 11.7416 3.83188 11.7416H38.2812V28.2123H1.71875V28.2122Z" fill="#2C2E3C"/>
<path d="M7.65251 16.901H4.41008C4.15077 16.901 3.94067 16.6908 3.94067 16.4316C3.94067 16.1723 4.15077 15.9621 4.41008 15.9621H7.65251C7.91182 15.9621 8.12192 16.1723 8.12192 16.4316C8.12192 16.6908 7.91173 16.901 7.65251 16.901Z" fill="#2C2E3C"/>
<path d="M36.2463 20.2355H33.0038C32.7445 20.2355 32.5344 20.0254 32.5344 19.7661C32.5344 19.5069 32.7445 19.2967 33.0038 19.2967H36.2463C36.5056 19.2967 36.7157 19.5069 36.7157 19.7661C36.7157 20.0255 36.5055 20.2355 36.2463 20.2355Z" fill="#2C2E3C"/>
<path d="M36.2463 22.2379H33.0038C32.7445 22.2379 32.5344 22.0277 32.5344 21.7685C32.5344 21.5092 32.7445 21.2991 33.0038 21.2991H36.2463C36.5056 21.2991 36.7157 21.5092 36.7157 21.7685C36.7157 22.0277 36.5055 22.2379 36.2463 22.2379Z" fill="#2C2E3C"/>
<path d="M36.2463 24.24H33.0038C32.7445 24.24 32.5344 24.0298 32.5344 23.7706C32.5344 23.5114 32.7445 23.3012 33.0038 23.3012H36.2463C36.5056 23.3012 36.7157 23.5114 36.7157 23.7706C36.7157 24.0298 36.5055 24.24 36.2463 24.24Z" fill="#2C2E3C"/>
<path d="M11.59 14.39H4.41008C4.15077 14.39 3.94067 14.1798 3.94067 13.9205C3.94067 13.6613 4.15077 13.4511 4.41008 13.4511H11.59C11.8493 13.4511 12.0594 13.6613 12.0594 13.9205C12.0594 14.1798 11.8492 14.39 11.59 14.39Z" fill="#2C2E3C"/>
<path d="M7.65251 18.5683H4.41008C4.15077 18.5683 3.94067 18.3581 3.94067 18.0989C3.94067 17.8397 4.15077 17.6295 4.41008 17.6295H7.65251C7.91182 17.6295 8.12192 17.8397 8.12192 18.0989C8.12192 18.3581 7.91173 18.5683 7.65251 18.5683Z" fill="#2C2E3C"/>
<path d="M7.65251 20.2355H4.41008C4.15077 20.2355 3.94067 20.0254 3.94067 19.7661C3.94067 19.5069 4.15077 19.2967 4.41008 19.2967H7.65251C7.91182 19.2967 8.12192 19.5069 8.12192 19.7661C8.12192 20.0255 7.91173 20.2355 7.65251 20.2355Z" fill="#2C2E3C"/>
<path d="M33.0475 14.3731C33.3376 14.3731 33.5728 14.1379 33.5728 13.8478C33.5728 13.5577 33.3376 13.3225 33.0475 13.3225C32.7574 13.3225 32.5222 13.5577 32.5222 13.8478C32.5222 14.1379 32.7574 14.3731 33.0475 14.3731Z" fill="#2C2E3C"/>
<path d="M33.0475 16.2433C33.3376 16.2433 33.5728 16.0081 33.5728 15.718C33.5728 15.4279 33.3376 15.1927 33.0475 15.1927C32.7574 15.1927 32.5222 15.4279 32.5222 15.718C32.5222 16.0081 32.7574 16.2433 33.0475 16.2433Z" fill="#2C2E3C"/>
<path d="M33.0475 18.1136C33.3376 18.1136 33.5728 17.8784 33.5728 17.5883C33.5728 17.2982 33.3376 17.063 33.0475 17.063C32.7574 17.063 32.5222 17.2982 32.5222 17.5883C32.5222 17.8784 32.7574 18.1136 33.0475 18.1136Z" fill="#2C2E3C"/>
<path d="M7.10078 23.768C7.10078 22.9092 6.40206 22.2105 5.54331 22.2105C4.68456 22.2105 3.98584 22.9092 3.98584 23.768C3.98584 24.1915 4.15628 24.5756 4.43162 24.8567C4.15637 25.1377 3.98584 25.5218 3.98584 25.9454C3.98584 26.2043 4.19575 26.4142 4.45459 26.4142C4.71343 26.4142 4.92334 26.2043 4.92334 25.9454C4.92334 25.6036 5.2015 25.3254 5.54331 25.3254C5.88512 25.3254 6.16328 25.6036 6.16328 25.9454C6.16328 26.2043 6.37318 26.4142 6.63203 26.4142C6.89087 26.4142 7.10078 26.2043 7.10078 25.9454C7.10078 25.5218 6.93034 25.1377 6.655 24.8567C6.93034 24.5756 7.10078 24.1916 7.10078 23.768ZM5.54322 23.148C5.88503 23.148 6.16318 23.4262 6.16318 23.768C6.16318 24.1098 5.88503 24.3879 5.54322 24.3879C5.2014 24.3879 4.92325 24.1098 4.92325 23.768C4.92325 23.4262 5.2014 23.148 5.54322 23.148Z" fill="#2C2E3C"/>
<path d="M33.5728 3.003C33.3139 3.003 33.104 2.79319 33.104 2.53425C33.104 2.22328 32.851 1.97025 32.54 1.97025C32.2812 1.97025 32.0713 1.76044 32.0713 1.5015C32.0713 1.24256 32.2812 1.03275 32.54 1.03275C32.851 1.03275 33.104 0.779813 33.104 0.46875C33.104 0.209813 33.3139 0 33.5728 0C33.8316 0 34.0415 0.209813 34.0415 0.46875C34.0415 0.779719 34.2946 1.03275 34.6055 1.03275C34.8644 1.03275 35.0743 1.24256 35.0743 1.5015C35.0743 1.76044 34.8644 1.97025 34.6055 1.97025C34.2946 1.97025 34.0415 2.22319 34.0415 2.53425C34.0415 2.79328 33.8317 3.003 33.5728 3.003Z" fill="#00C3ED"/>
<path d="M11.5103 37.691C11.2514 37.691 11.0415 37.4812 11.0415 37.2223C11.0415 36.9113 10.7885 36.6583 10.4775 36.6583C10.2187 36.6583 10.0088 36.4485 10.0088 36.1895C10.0088 35.9306 10.2187 35.7208 10.4775 35.7208C10.7885 35.7208 11.0415 35.4679 11.0415 35.1568C11.0415 34.8979 11.2514 34.688 11.5103 34.688C11.7691 34.688 11.979 34.8979 11.979 35.1568C11.979 35.4678 12.2321 35.7208 12.543 35.7208C12.8019 35.7208 13.0118 35.9306 13.0118 36.1895C13.0118 36.4485 12.8019 36.6583 12.543 36.6583C12.2321 36.6583 11.979 36.9112 11.979 37.2223C11.979 37.4812 11.7691 37.691 11.5103 37.691Z" fill="#00C3ED"/>
<path d="M6.03129 39.0672C5.77244 39.0672 5.56254 38.8574 5.56254 38.5985C5.56254 38.2875 5.3095 38.0345 4.99854 38.0345C4.73969 38.0345 4.52979 37.8246 4.52979 37.5657C4.52979 37.3068 4.73969 37.097 4.99854 37.097C5.3095 37.097 5.56254 36.844 5.56254 36.533C5.56254 36.274 5.77244 36.0642 6.03129 36.0642C6.29013 36.0642 6.50004 36.274 6.50004 36.533C6.50004 36.8439 6.75307 37.097 7.06404 37.097C7.32288 37.097 7.53279 37.3068 7.53279 37.5657C7.53279 37.8246 7.32288 38.0345 7.06404 38.0345C6.75307 38.0345 6.50004 38.2874 6.50004 38.5985C6.50004 38.8572 6.29013 39.0672 6.03129 39.0672Z" fill="#00C3ED"/>
<path d="M28.4639 4.21931C28.3439 4.21931 28.224 4.17356 28.1324 4.08197L27.1017 3.05128C26.9186 2.86828 26.9186 2.57147 27.1017 2.38847L28.1324 1.35778C28.3155 1.17469 28.6122 1.17469 28.7953 1.35778L29.826 2.38847C30.009 2.57147 30.009 2.86828 29.826 3.05128L28.7954 4.08206C28.7038 4.17356 28.5839 4.21931 28.4639 4.21931ZM28.0961 2.71978L28.4639 3.08756L28.8316 2.71978L28.4639 2.352L28.0961 2.71978Z" fill="#00C3ED"/>
</svg>
