<svg width="41" height="42" viewBox="0 0 41 42" fill="none" xmlns="http://www.w3.org/2000/svg">
<path opacity="0.1" d="M39.7906 36.3075H34.5291C35.0469 36.3075 35.4666 35.8877 35.4666 35.37V20.543C35.4666 20.0252 35.0469 19.6055 34.5291 19.6055H28.1384C28.6561 19.6055 29.0759 19.1858 29.0759 18.668V3.84119C29.0759 3.32341 28.6561 2.90369 28.1384 2.90369H13.3115C12.7937 2.90369 12.374 3.32341 12.374 3.84119V18.668C12.374 19.1858 12.7937 19.6055 13.3115 19.6055H6.92077C6.40299 19.6055 5.98327 20.0252 5.98327 20.543V35.37C5.98327 35.8877 6.40299 36.3075 6.92077 36.3075H1.65942C1.40058 36.3075 1.19067 36.5173 1.19067 36.7762V38.4557C1.19067 38.7145 1.40058 38.9244 1.65942 38.9244H2.24602V40.6865C2.24602 40.9454 2.45592 41.1553 2.71477 41.1553H4.94564C5.20449 41.1553 5.41439 40.9454 5.41439 40.6865V38.9244H19.1408V40.6865C19.1408 40.9454 19.3506 41.1553 19.6096 41.1553H21.8404C22.0994 41.1553 22.3092 40.9454 22.3092 40.6865V38.9244H36.0356V40.6865C36.0356 40.9454 36.2455 41.1553 36.5043 41.1553H38.7352C38.9941 41.1553 39.204 40.9454 39.204 40.6865V38.9244H39.7906C40.0494 38.9244 40.2593 38.7145 40.2593 38.4557V36.7762C40.2593 36.5173 40.0494 36.3075 39.7906 36.3075Z" fill="#2C2E3C"/>
<path d="M4.94572 38.8115H2.71484C2.456 38.8115 2.24609 38.6016 2.24609 38.3428V35.6432H5.41447V38.3428C5.41447 38.6016 5.20456 38.8115 4.94572 38.8115Z" fill="white"/>
<path d="M21.8405 38.8115H19.6096C19.3508 38.8115 19.1409 38.6016 19.1409 38.3428V35.6431H22.3092V38.3428C22.3092 38.6016 22.0993 38.8115 21.8405 38.8115Z" fill="white"/>
<path d="M38.7353 38.8115H36.5044C36.2456 38.8115 36.0356 38.6016 36.0356 38.3428V35.6431H39.204V38.3428C39.204 38.6016 38.9941 38.8115 38.7353 38.8115Z" fill="white"/>
<path d="M39.7906 36.5807H1.65942C1.40058 36.5807 1.19067 36.3707 1.19067 36.1119V34.4325C1.19067 34.1735 1.40058 33.9637 1.65942 33.9637H39.7906C40.0494 33.9637 40.2593 34.1735 40.2593 34.4325V36.1119C40.2593 36.3707 40.0494 36.5807 39.7906 36.5807Z" fill="white"/>
<path d="M21.7477 33.9637H6.9209C6.40312 33.9637 5.9834 33.544 5.9834 33.0262V18.1993C5.9834 17.6815 6.40312 17.2618 6.9209 17.2618H21.7477C22.2655 17.2618 22.6852 17.6815 22.6852 18.1993V33.0262C22.6852 33.5439 22.2655 33.9637 21.7477 33.9637Z" fill="white"/>
<path d="M20.3416 19.6055V31.6199H8.32721V19.6055H20.3416Z" fill="#00C3ED"/>
<path d="M20.1042 18.19L21.7613 19.847L8.85651 32.7518L7.19948 31.0947L20.1042 18.19Z" fill="white"/>
<path d="M34.5292 33.9637H19.7024C19.1846 33.9637 18.7649 33.544 18.7649 33.0262V18.1993C18.7649 17.6815 19.1846 17.2618 19.7024 17.2618H34.5292C35.047 17.2618 35.4667 17.6815 35.4667 18.1993V33.0262C35.4667 33.5439 35.047 33.9637 34.5292 33.9637Z" fill="white"/>
<path d="M33.123 19.6055V31.6199H21.1087V19.6055H33.123Z" fill="#00C3ED"/>
<path d="M32.8845 18.1887L34.5416 19.8457L21.6368 32.7505L19.9798 31.0934L32.8845 18.1887Z" fill="white"/>
<path d="M28.1385 17.2618H13.3115C12.7937 17.2618 12.374 16.8421 12.374 16.3243V1.49744C12.374 0.979655 12.7937 0.559937 13.3115 0.559937H28.1384C28.6561 0.559937 29.0759 0.979655 29.0759 1.49744V16.3244C29.076 16.8421 28.6562 17.2618 28.1385 17.2618Z" fill="white"/>
<path d="M26.7322 2.9036V14.918H14.7178V2.9036H26.7322Z" fill="#00C3ED"/>
<path d="M16.2451 4.93027H17.9873C18.2461 4.93027 18.456 4.72037 18.456 4.46152C18.456 4.20268 18.2461 3.99277 17.9873 3.99277H16.2451C15.9863 3.99277 15.7764 4.20268 15.7764 4.46152C15.7764 4.72046 15.9863 4.93027 16.2451 4.93027Z" fill="#2C2E3C"/>
<path d="M16.2451 6.55422H17.0498C17.3086 6.55422 17.5185 6.34432 17.5185 6.08547C17.5185 5.82663 17.3086 5.61672 17.0498 5.61672H16.2451C15.9863 5.61672 15.7764 5.82663 15.7764 6.08547C15.7764 6.34432 15.9863 6.55422 16.2451 6.55422Z" fill="#2C2E3C"/>
<path d="M16.2451 7.99055H17.0498C17.3086 7.99055 17.5185 7.78064 17.5185 7.5218C17.5185 7.26295 17.3086 7.05305 17.0498 7.05305H16.2451C15.9863 7.05305 15.7764 7.26295 15.7764 7.5218C15.7764 7.78064 15.9863 7.99055 16.2451 7.99055Z" fill="#2C2E3C"/>
<path d="M39.7906 33.4949H35.8533C35.9055 33.348 35.9354 33.1907 35.9354 33.0261V18.1993C35.9354 17.4239 35.3045 16.793 34.5291 16.793H29.4626C29.5147 16.6461 29.5446 16.4888 29.5446 16.3243V1.49744C29.5446 0.72203 28.9138 0.0911865 28.1384 0.0911865H13.3115C12.5361 0.0911865 11.9053 0.72203 11.9053 1.49744C11.9053 1.75628 12.1152 1.96619 12.374 1.96619C12.6329 1.96619 12.8428 1.75628 12.8428 1.49744C12.8428 1.23897 13.0531 1.02869 13.3115 1.02869H28.1384C28.3968 1.02869 28.6071 1.23897 28.6071 1.49744V16.3243C28.6071 16.5827 28.3968 16.793 28.1384 16.793H13.3115C13.0531 16.793 12.8428 16.5827 12.8428 16.3243V4.23981C12.8428 3.98097 12.6329 3.77106 12.374 3.77106C12.1152 3.77106 11.9053 3.98097 11.9053 4.23981V16.3243C11.9053 16.4888 11.9352 16.6461 11.9873 16.793H6.92077C6.14536 16.793 5.51452 17.4239 5.51452 18.1993V33.0261C5.51452 33.1907 5.54442 33.348 5.59655 33.4949H1.65942C1.14249 33.4949 0.721924 33.9154 0.721924 34.4324V36.1118C0.721924 36.6287 1.14249 37.0493 1.65942 37.0493H1.77727V38.3427C1.77727 38.8596 2.19783 39.2802 2.71477 39.2802H4.94564C5.46258 39.2802 5.88314 38.8596 5.88314 38.3427V37.0493H18.6721V38.3427C18.6721 38.8596 19.0926 39.2802 19.6096 39.2802H21.8404C22.3574 39.2802 22.7779 38.8596 22.7779 38.3427V37.0493H33.2932C33.5521 37.0493 33.762 36.8394 33.762 36.5806C33.762 36.3217 33.5521 36.1118 33.2932 36.1118H1.65942V34.4324H39.7906V36.1118H36.0356C35.7767 36.1118 35.5668 36.3217 35.5668 36.5806V38.3427C35.5668 38.8596 35.9874 39.2802 36.5043 39.2802H38.7352C39.2521 39.2802 39.6727 38.8596 39.6727 38.3427V37.0493H39.7906C40.3075 37.0493 40.7281 36.6287 40.7281 36.1118V34.4324C40.7281 33.9154 40.3075 33.4949 39.7906 33.4949ZM4.94564 38.3428H2.71477V37.0494H4.94564V38.3428ZM21.8404 38.3428H19.6096V37.0494H21.8404V38.3428ZM6.45211 33.0261V18.1993C6.45211 17.9408 6.66239 17.7305 6.92086 17.7305H18.378C18.3258 17.8774 18.296 18.0347 18.296 18.1993V33.0261C18.296 33.1907 18.3259 33.348 18.378 33.4949H6.92086C6.66239 33.4949 6.45211 33.2846 6.45211 33.0261ZM21.9976 33.4949H19.7023C19.4438 33.4949 19.2335 33.2846 19.2335 33.0261V18.1993C19.2335 17.9408 19.4438 17.7305 19.7023 17.7305H34.5291C34.7876 17.7305 34.9979 17.9408 34.9979 18.1993V33.0261C34.9979 33.2846 34.7876 33.4949 34.5291 33.4949H21.9976ZM38.7352 38.3428H36.5043V37.0494H38.7352V38.3428Z" fill="#2C2E3C"/>
<path d="M26.4924 1.48934L28.1495 3.14637L15.2447 16.0511L13.5877 14.3941L26.4924 1.48934Z" fill="white"/>
<path d="M31.6197 30.8603H29.5447C29.2858 30.8603 29.0759 30.6504 29.0759 30.3916V29.7209C29.0759 29.462 29.2858 29.2521 29.5447 29.2521H31.6197C31.8786 29.2521 32.0885 29.462 32.0885 29.7209V30.3916C32.0885 30.6504 31.8786 30.8603 31.6197 30.8603Z" fill="white"/>
<path d="M37.0423 13.1834C36.6791 13.1834 36.3378 13.042 36.0811 12.7852C35.5511 12.2553 35.5511 11.3929 36.0811 10.8628C36.611 10.3329 37.4735 10.3328 38.0035 10.8628C38.5335 11.3929 38.5335 12.2553 38.0035 12.7852C37.7467 13.0419 37.4054 13.1834 37.0423 13.1834ZM37.0423 11.4023C36.9343 11.4023 36.8262 11.4434 36.744 11.5257C36.5794 11.6901 36.5794 11.9578 36.744 12.1223C36.8237 12.202 36.9296 12.2459 37.0423 12.2459C37.155 12.2459 37.2609 12.202 37.3406 12.1223C37.5051 11.9578 37.5051 11.6901 37.3406 11.5257C37.2584 11.4434 37.1504 11.4023 37.0423 11.4023Z" fill="#00C3ED"/>
<path d="M7.38941 13.3853C7.02631 13.3853 6.68497 13.244 6.42819 12.9871C6.1715 12.7304 6.03003 12.389 6.03003 12.026C6.03003 11.6629 6.1714 11.3215 6.42819 11.0647C6.95816 10.5347 7.82066 10.5348 8.35063 11.0647C8.60741 11.3215 8.74879 11.6629 8.74879 12.026C8.74879 12.3891 8.60741 12.7305 8.35063 12.9872C8.09394 13.2439 7.7526 13.3853 7.38941 13.3853ZM7.3895 11.6044C7.28141 11.6044 7.17341 11.6455 7.09119 11.7277C7.0115 11.8074 6.96763 11.9134 6.96763 12.026C6.96763 12.1387 7.0115 12.2447 7.09119 12.3244C7.17097 12.4041 7.27681 12.4479 7.3895 12.4479C7.50219 12.4479 7.60813 12.404 7.68782 12.3244C7.7675 12.2447 7.81138 12.1387 7.81138 12.026C7.81138 11.9134 7.7675 11.8074 7.68782 11.7277C7.6056 11.6454 7.4975 11.6044 7.3895 11.6044Z" fill="#00C3ED"/>
<path d="M2.52227 24.972C2.17417 24.972 1.82608 24.8395 1.56105 24.5745C1.03108 24.0444 1.03108 23.182 1.56105 22.652C2.09102 22.1221 2.95342 22.1221 3.48349 22.652C3.74027 22.9088 3.88164 23.2502 3.88164 23.6134C3.88164 23.9765 3.74027 24.3178 3.48339 24.5746C3.21845 24.8394 2.87036 24.9719 2.52227 24.972ZM2.52227 23.1915C2.41427 23.1915 2.30617 23.2326 2.22396 23.3149C2.05942 23.4793 2.05942 23.747 2.22396 23.9115C2.38839 24.076 2.65605 24.076 2.82049 23.9115C2.90027 23.8318 2.94405 23.7259 2.94405 23.6132C2.94405 23.5005 2.90017 23.3945 2.82049 23.3149H2.82058C2.73836 23.2326 2.63027 23.1915 2.52227 23.1915Z" fill="#00C3ED"/>
<path d="M34.4184 14.2164C34.2984 14.2164 34.1785 14.1707 34.0869 14.0792L33.5278 13.52L32.9687 14.0792C32.7856 14.2622 32.4889 14.2622 32.3058 14.0792C32.1227 13.8961 32.1227 13.5993 32.3058 13.4163L33.1964 12.5256C33.3795 12.3426 33.6762 12.3426 33.8593 12.5256L34.7499 13.4163C34.933 13.5994 34.933 13.8962 34.7499 14.0792C34.6584 14.1707 34.5384 14.2164 34.4184 14.2164Z" fill="#00C3ED"/>
<path d="M9.21775 9.18589C9.09775 9.18589 8.97785 9.14014 8.88625 9.04864L8.32713 8.48951L7.768 9.04864C7.58491 9.23164 7.28819 9.23164 7.10509 9.04864C6.922 8.86554 6.922 8.56873 7.10509 8.38573L7.99572 7.49511C8.17881 7.31211 8.47553 7.31211 8.65863 7.49511L9.54925 8.38573C9.73235 8.56883 9.73235 8.86564 9.54925 9.04864C9.45766 9.14014 9.33775 9.18589 9.21775 9.18589Z" fill="#00C3ED"/>
</svg>
