<svg width="40" height="41" viewBox="0 0 40 41" fill="none" xmlns="http://www.w3.org/2000/svg">
  <path opacity="0.1" d="M38.75 6.19409V30.03C38.75 30.8063 38.12 31.4363 37.3438 31.4363H2.65625C1.88 31.4363 1.25 30.8063 1.25 30.03V6.19409C1.25 5.41784 1.88 4.78784 2.65625 4.78784H37.3438C38.12 4.78784 38.75 5.41784 38.75 6.19409Z" fill="#2934D0"/>
  <path d="M25.3168 40.2212H14.6836L16.81 31.7927H23.1904L25.3168 40.2212Z" fill="white"/>
  <path d="M38.75 8.16284V31.9988C38.75 32.775 38.12 33.405 37.3438 33.405H2.65625C1.88 33.405 1.25 32.775 1.25 31.9988V8.16284C1.25 7.38659 1.88 6.75659 2.65625 6.75659H37.3438C38.12 6.75659 38.75 7.3865 38.75 8.16284Z" fill="white"/>
  <path d="M37.3439 6.75659H30.9014V33.405H37.3439C38.1201 33.405 38.7501 32.775 38.7501 31.9988V8.16284C38.7501 7.3865 38.1201 6.75659 37.3439 6.75659Z" fill="#6583FE"/>
  <path d="M20 14.9592L11.9375 21.7686H13.8125C13.9678 21.7686 14.0938 21.8945 14.0938 22.0498V29.5359H25.9063V22.0498C25.9063 21.8945 26.0322 21.7686 26.1875 21.7686H28.0625L20 14.9592Z" fill="#6583FE"/>
  <path d="M28.0624 22.2371C27.9555 22.2371 27.8481 22.2007 27.7601 22.1265L20 15.5726L12.24 22.1265C12.0422 22.2934 11.7464 22.2687 11.5794 22.0708C11.4123 21.873 11.4373 21.5772 11.6351 21.4101L19.6976 14.6008C19.8723 14.4534 20.1278 14.4534 20.3025 14.6008L28.365 21.4101C28.5628 21.5772 28.5876 21.873 28.4207 22.0708C28.3279 22.1806 28.1956 22.2371 28.0624 22.2371Z" fill="#2934D0"/>
  <path d="M20.4062 29.5357H16.4688V23.1921C16.4688 22.9333 16.6787 22.7234 16.9375 22.7234H19.9375C20.1963 22.7234 20.4062 22.9333 20.4062 23.1921V29.5357Z" fill="white"/>
  <path d="M22.7432 25.0984C23.399 25.0984 23.9307 24.5668 23.9307 23.9109C23.9307 23.2551 23.399 22.7234 22.7432 22.7234C22.0873 22.7234 21.5557 23.2551 21.5557 23.9109C21.5557 24.5668 22.0873 25.0984 22.7432 25.0984Z" fill="white"/>
  <path d="M38.75 11.2729V8.16309C38.75 7.38646 38.1204 6.75684 37.3438 6.75684H2.65625C1.87963 6.75684 1.25 7.38646 1.25 8.16309V11.2729H38.75Z" fill="white"/>
  <path d="M1.25 28.6809V31.9987C1.25 32.7753 1.87963 33.405 2.65625 33.405H37.3438C38.1204 33.405 38.75 32.7753 38.75 31.9987V28.6809H1.25Z" fill="white"/>
  <path d="M4.82031 9.49049C5.07916 9.49049 5.28906 9.28068 5.28906 9.02174V9.00806C5.28906 8.74912 5.07916 8.53931 4.82031 8.53931C4.56147 8.53931 4.35156 8.74912 4.35156 9.00806V9.02174C4.35156 9.28059 4.56147 9.49049 4.82031 9.49049Z" fill="#2934D0"/>
  <path d="M6.63184 9.49049C6.89068 9.49049 7.10059 9.28068 7.10059 9.02174V9.00806C7.10059 8.74912 6.89068 8.53931 6.63184 8.53931C6.37299 8.53931 6.16309 8.74912 6.16309 9.00806V9.02174C6.16309 9.28059 6.3729 9.49049 6.63184 9.49049Z" fill="#2934D0"/>
  <path d="M8.44336 9.49049C8.7022 9.49049 8.91211 9.28068 8.91211 9.02174V9.00806C8.91211 8.74912 8.7022 8.53931 8.44336 8.53931C8.18452 8.53931 7.97461 8.74912 7.97461 9.00806V9.02174C7.97461 9.28059 8.18452 9.49049 8.44336 9.49049Z" fill="#2934D0"/>
  <path d="M37.3438 6.28809H2.65625C1.62238 6.28809 0.78125 7.12921 0.78125 8.16308V31.9988C0.78125 33.0327 1.62238 33.8738 2.65625 33.8738H15.8013L14.3183 39.752H12.8812C12.6223 39.752 12.4124 39.9618 12.4124 40.2208C12.4124 40.4797 12.6223 40.6895 12.8812 40.6895H27.1188C27.3777 40.6895 27.5876 40.4797 27.5876 40.2208C27.5876 39.9618 27.3777 39.752 27.1188 39.752H25.6816L24.1986 33.8738H27.4537C27.7125 33.8738 27.9224 33.664 27.9224 33.4051C27.9224 33.1461 27.7125 32.9363 27.4537 32.9363H2.65625C2.13931 32.9363 1.71875 32.5158 1.71875 31.9988V29.1498H38.2813V31.9988C38.2813 32.5158 37.8607 32.9363 37.3438 32.9363H30.0356C29.7767 32.9363 29.5668 33.1461 29.5668 33.4051C29.5668 33.664 29.7767 33.8738 30.0356 33.8738H37.3438C38.3776 33.8738 39.2188 33.0327 39.2188 31.9988V8.16308C39.2188 7.1293 38.3776 6.28809 37.3438 6.28809ZM24.7147 39.7519H15.2851L16.7682 33.8737H23.2318L24.7147 39.7519ZM1.71875 28.2122V8.16308C1.71875 7.64615 2.13931 7.22559 2.65625 7.22559H37.3438C37.8607 7.22559 38.2813 7.64615 38.2813 8.16308V10.8041H3.83188C3.57303 10.8041 3.36313 11.0139 3.36313 11.2729C3.36313 11.5318 3.57303 11.7416 3.83188 11.7416H38.2812V28.2123H1.71875V28.2122Z" fill="#2934D0"/>
  <path d="M7.65227 16.901H4.40983C4.15052 16.901 3.94043 16.6908 3.94043 16.4316C3.94043 16.1723 4.15052 15.9622 4.40983 15.9622H7.65227C7.91158 15.9622 8.12167 16.1723 8.12167 16.4316C8.12167 16.6908 7.91149 16.901 7.65227 16.901Z" fill="#2934D0"/>
  <path d="M36.246 20.2354H33.0036C32.7443 20.2354 32.5342 20.0253 32.5342 19.766C32.5342 19.5068 32.7443 19.2966 33.0036 19.2966H36.246C36.5053 19.2966 36.7154 19.5068 36.7154 19.766C36.7154 20.0253 36.5052 20.2354 36.246 20.2354Z" fill="#2934D0"/>
  <path d="M36.246 22.2379H33.0036C32.7443 22.2379 32.5342 22.0277 32.5342 21.7685C32.5342 21.5093 32.7443 21.2991 33.0036 21.2991H36.246C36.5053 21.2991 36.7154 21.5093 36.7154 21.7685C36.7154 22.0277 36.5052 22.2379 36.246 22.2379Z" fill="#2934D0"/>
  <path d="M36.246 24.2401H33.0036C32.7443 24.2401 32.5342 24.0299 32.5342 23.7707C32.5342 23.5115 32.7443 23.3013 33.0036 23.3013H36.246C36.5053 23.3013 36.7154 23.5115 36.7154 23.7707C36.7154 24.0299 36.5052 24.2401 36.246 24.2401Z" fill="#2934D0"/>
  <path d="M11.5898 14.39H4.40984C4.15052 14.39 3.94043 14.1798 3.94043 13.9206C3.94043 13.6614 4.15052 13.4512 4.40984 13.4512H11.5898C11.8491 13.4512 12.0592 13.6614 12.0592 13.9206C12.0592 14.1798 11.849 14.39 11.5898 14.39Z" fill="#2934D0"/>
  <path d="M7.65227 18.5682H4.40983C4.15052 18.5682 3.94043 18.358 3.94043 18.0988C3.94043 17.8396 4.15052 17.6294 4.40983 17.6294H7.65227C7.91158 17.6294 8.12167 17.8396 8.12167 18.0988C8.12167 18.358 7.91149 18.5682 7.65227 18.5682Z" fill="#2934D0"/>
  <path d="M7.65227 20.2354H4.40983C4.15052 20.2354 3.94043 20.0253 3.94043 19.766C3.94043 19.5068 4.15052 19.2966 4.40983 19.2966H7.65227C7.91158 19.2966 8.12167 19.5068 8.12167 19.766C8.12167 20.0253 7.91149 20.2354 7.65227 20.2354Z" fill="#2934D0"/>
  <path d="M33.0477 14.3731C33.3378 14.3731 33.573 14.1379 33.573 13.8478C33.573 13.5577 33.3378 13.3225 33.0477 13.3225C32.7576 13.3225 32.5225 13.5577 32.5225 13.8478C32.5225 14.1379 32.7576 14.3731 33.0477 14.3731Z" fill="#2934D0"/>
  <path d="M33.0477 16.2432C33.3378 16.2432 33.573 16.008 33.573 15.7179C33.573 15.4278 33.3378 15.1926 33.0477 15.1926C32.7576 15.1926 32.5225 15.4278 32.5225 15.7179C32.5225 16.008 32.7576 16.2432 33.0477 16.2432Z" fill="#2934D0"/>
  <path d="M33.0477 18.1136C33.3378 18.1136 33.573 17.8784 33.573 17.5883C33.573 17.2982 33.3378 17.063 33.0477 17.063C32.7576 17.063 32.5225 17.2982 32.5225 17.5883C32.5225 17.8784 32.7576 18.1136 33.0477 18.1136Z" fill="#2934D0"/>
  <path d="M7.10029 23.7679C7.10029 22.9092 6.40157 22.2104 5.54282 22.2104C4.68407 22.2104 3.98535 22.9092 3.98535 23.7679C3.98535 24.1915 4.15579 24.5756 4.43113 24.8566C4.15588 25.1377 3.98535 25.5218 3.98535 25.9454C3.98535 26.2043 4.19526 26.4141 4.4541 26.4141C4.71295 26.4141 4.92285 26.2043 4.92285 25.9454C4.92285 25.6035 5.20101 25.3254 5.54282 25.3254C5.88463 25.3254 6.16279 25.6035 6.16279 25.9454C6.16279 26.2043 6.3727 26.4141 6.63154 26.4141C6.89038 26.4141 7.10029 26.2043 7.10029 25.9454C7.10029 25.5218 6.92985 25.1377 6.65451 24.8566C6.92985 24.5756 7.10029 24.1916 7.10029 23.7679ZM5.54273 23.1479C5.88454 23.1479 6.1627 23.4261 6.1627 23.7679C6.1627 24.1097 5.88454 24.3879 5.54273 24.3879C5.20091 24.3879 4.92276 24.1097 4.92276 23.7679C4.92276 23.4261 5.20091 23.1479 5.54273 23.1479Z" fill="#2934D0"/>
  <path d="M33.5728 3.003C33.3139 3.003 33.104 2.79319 33.104 2.53425C33.104 2.22328 32.851 1.97025 32.54 1.97025C32.2812 1.97025 32.0713 1.76044 32.0713 1.5015C32.0713 1.24256 32.2812 1.03275 32.54 1.03275C32.851 1.03275 33.104 0.779813 33.104 0.46875C33.104 0.209813 33.3139 0 33.5728 0C33.8316 0 34.0415 0.209813 34.0415 0.46875C34.0415 0.779719 34.2946 1.03275 34.6055 1.03275C34.8644 1.03275 35.0743 1.24256 35.0743 1.5015C35.0743 1.76044 34.8644 1.97025 34.6055 1.97025C34.2946 1.97025 34.0415 2.22319 34.0415 2.53425C34.0415 2.79328 33.8317 3.003 33.5728 3.003Z" fill="#6583FE"/>
  <path d="M11.5103 37.691C11.2514 37.691 11.0415 37.4812 11.0415 37.2222C11.0415 36.9113 10.7885 36.6582 10.4775 36.6582C10.2187 36.6582 10.0088 36.4484 10.0088 36.1895C10.0088 35.9305 10.2187 35.7207 10.4775 35.7207C10.7885 35.7207 11.0415 35.4678 11.0415 35.1567C11.0415 34.8978 11.2514 34.688 11.5103 34.688C11.7691 34.688 11.979 34.8978 11.979 35.1567C11.979 35.4677 12.2321 35.7207 12.543 35.7207C12.8019 35.7207 13.0118 35.9305 13.0118 36.1895C13.0118 36.4484 12.8019 36.6582 12.543 36.6582C12.2321 36.6582 11.979 36.9112 11.979 37.2222C11.979 37.4812 11.7691 37.691 11.5103 37.691Z" fill="#6583FE"/>
  <path d="M6.0308 39.0672C5.77195 39.0672 5.56205 38.8574 5.56205 38.5985C5.56205 38.2875 5.30902 38.0345 4.99805 38.0345C4.7392 38.0345 4.5293 37.8246 4.5293 37.5657C4.5293 37.3068 4.7392 37.097 4.99805 37.097C5.30902 37.097 5.56205 36.844 5.56205 36.533C5.56205 36.274 5.77195 36.0642 6.0308 36.0642C6.28964 36.0642 6.49955 36.274 6.49955 36.533C6.49955 36.8439 6.75258 37.097 7.06355 37.097C7.32239 37.097 7.5323 37.3068 7.5323 37.5657C7.5323 37.8246 7.32239 38.0345 7.06355 38.0345C6.75258 38.0345 6.49955 38.2874 6.49955 38.5985C6.49955 38.8572 6.28964 39.0672 6.0308 39.0672Z" fill="#6583FE"/>
  <path d="M28.4644 4.21931C28.3444 4.21931 28.2244 4.17356 28.1329 4.08197L27.1022 3.05128C26.9191 2.86828 26.9191 2.57147 27.1022 2.38847L28.1329 1.35778C28.3159 1.17469 28.6127 1.17469 28.7958 1.35778L29.8264 2.38847C30.0095 2.57147 30.0095 2.86828 29.8264 3.05128L28.7959 4.08206C28.7043 4.17356 28.5844 4.21931 28.4644 4.21931ZM28.0966 2.71978L28.4644 3.08756L28.8321 2.71978L28.4644 2.352L28.0966 2.71978Z" fill="#6583FE"/>
</svg>
