<svg width="44" height="40" viewBox="0 0 44 40" fill="none" xmlns="http://www.w3.org/2000/svg">
  <path d="M31.9141 2.75293H31.6328V2.47168C31.6328 2.21274 31.423 2.00293 31.1641 2.00293C30.9051 2.00293 30.6953 2.21274 30.6953 2.47168V2.75293H30.4141C30.1551 2.75293 29.9453 2.96274 29.9453 3.22168C29.9453 3.48062 30.1551 3.69043 30.4141 3.69043H30.6953V3.97168C30.6953 4.23062 30.9051 4.44043 31.1641 4.44043C31.423 4.44043 31.6328 4.23062 31.6328 3.97168V3.69043H31.9141C32.173 3.69043 32.3828 3.48062 32.3828 3.22168C32.3828 2.96274 32.173 2.75293 31.9141 2.75293Z" fill="#6583FE"/>
  <path d="M34.4512 37.5645H34.1699V37.2832C34.1699 37.0243 33.9601 36.8145 33.7012 36.8145C33.4422 36.8145 33.2324 37.0243 33.2324 37.2832V37.5645H32.9512C32.6922 37.5645 32.4824 37.7743 32.4824 38.0332C32.4824 38.2921 32.6922 38.502 32.9512 38.502H33.2324V38.7832C33.2324 39.0421 33.4422 39.252 33.7012 39.252C33.9601 39.252 34.1699 39.0421 34.1699 38.7832V38.502H34.4512C34.7101 38.502 34.9199 38.2921 34.9199 38.0332C34.9199 37.7743 34.71 37.5645 34.4512 37.5645Z" fill="#6583FE"/>
  <path d="M34.4511 1.78416C34.3312 1.78416 34.2111 1.73841 34.1197 1.64681L33.7011 1.22831L33.2826 1.64681C33.0996 1.82991 32.8026 1.82991 32.6197 1.64681C32.4366 1.46381 32.4366 1.167 32.6197 0.984L33.3697 0.234C33.5526 0.0509063 33.8496 0.0509063 34.0326 0.234L34.7825 0.984C34.9656 1.167 34.9656 1.46381 34.7825 1.64681C34.691 1.73841 34.571 1.78416 34.4511 1.78416Z" fill="#6583FE"/>
  <path d="M11.1953 39.2519C11.0754 39.2519 10.9553 39.2062 10.8639 39.1146L10.4453 38.6961L10.0267 39.1146C9.84379 39.2977 9.54679 39.2977 9.36388 39.1146C9.18079 38.9316 9.18079 38.6348 9.36388 38.4518L10.1139 37.7018C10.2968 37.5187 10.5938 37.5187 10.7767 37.7018L11.5267 38.4518C11.7098 38.6348 11.7098 38.9316 11.5267 39.1146C11.4353 39.2062 11.3152 39.2519 11.1953 39.2519Z" fill="#6583FE"/>
  <path d="M15.875 38.5019C15.7551 38.5019 15.635 38.4562 15.5436 38.3646L15.125 37.9461L14.7064 38.3646C14.5235 38.5477 14.2265 38.5477 14.0436 38.3646C13.8605 38.1816 13.8605 37.8848 14.0436 37.7018L14.7936 36.9518C14.9765 36.7687 15.2735 36.7687 15.4564 36.9518L16.2064 37.7018C16.3895 37.8848 16.3895 38.1816 16.2064 38.3646C16.115 38.4562 15.9949 38.5019 15.875 38.5019Z" fill="#6583FE"/>
  <path opacity="0.1" d="M43.1866 32.6233V34.9867C43.1866 35.5042 42.7675 35.9242 42.2491 35.9242H1.75098C1.23254 35.9242 0.813477 35.5042 0.813477 34.9867V32.6233C0.813477 32.1058 1.23254 31.6858 1.75098 31.6858H14.5014C14.6375 31.6858 14.7668 31.7449 14.8558 31.8478L16.0628 33.242H27.9372L29.1443 31.8478C29.2333 31.7449 29.3626 31.6858 29.4986 31.6858H42.2491C42.7675 31.6858 43.1866 32.1058 43.1866 32.6233Z" fill="#2934D0"/>
  <path d="M40.3786 7.96231V31.3745H3.62109V7.96231C3.62109 7.07075 4.34297 6.34888 5.23453 6.34888H38.7652C39.6567 6.34888 40.3786 7.07075 40.3786 7.96231Z" fill="#6583FE"/>
  <path d="M43.1866 30.092V32.4555C43.1866 32.973 42.7675 33.393 42.2491 33.393H1.75098C1.23254 33.393 0.813477 32.973 0.813477 32.4555V30.092C0.813477 29.5745 1.23254 29.1545 1.75098 29.1545H14.5014C14.6375 29.1545 14.7668 29.2136 14.8558 29.3165L16.0628 30.7108H27.9372L29.1443 29.3165C29.2333 29.2137 29.3626 29.1545 29.4986 29.1545H42.2491C42.7675 29.1545 43.1866 29.5745 43.1866 30.092Z" fill="white"/>
  <path d="M37.7344 26.907H6.2666C6.00776 26.907 5.79785 26.6971 5.79785 26.4382V9.14771C5.79785 8.88886 6.00776 8.67896 6.2666 8.67896H37.7344C37.9932 8.67896 38.2031 8.88886 38.2031 9.14771V26.4382C38.2031 26.6971 37.9933 26.907 37.7344 26.907Z" fill="white"/>
  <path d="M38.2025 19.9717V26.4386C38.2025 26.6973 37.9925 26.9073 37.7338 26.9073H6.26563C6.00688 26.9073 5.79688 26.6973 5.79688 26.4386V19.9717H38.2025Z" fill="white"/>
  <path d="M12.248 18.9038H8.44922C8.19028 18.9038 7.98047 18.6939 7.98047 18.4351C7.98047 18.1762 8.19028 17.9663 8.44922 17.9663H12.248C12.5069 17.9663 12.7167 18.1762 12.7167 18.4351C12.7167 18.6939 12.5068 18.9038 12.248 18.9038Z" fill="#2934D0"/>
  <path d="M14.7792 22.115H8.44922C8.19028 22.115 7.98047 21.9051 7.98047 21.6462C7.98047 21.3874 8.19028 21.1775 8.44922 21.1775H14.7792C15.0382 21.1775 15.248 21.3874 15.248 21.6462C15.248 21.9051 15.0381 22.115 14.7792 22.115Z" fill="#2934D0"/>
  <path d="M14.7792 23.7559H8.44922C8.19028 23.7559 7.98047 23.546 7.98047 23.2871C7.98047 23.0283 8.19028 22.8184 8.44922 22.8184H14.7792C15.0382 22.8184 15.248 23.0283 15.248 23.2871C15.248 23.546 15.0381 23.7559 14.7792 23.7559Z" fill="#2934D0"/>
  <path d="M8.59473 17.2114C8.85361 17.2114 9.06348 17.0016 9.06348 16.7427C9.06348 16.4838 8.85361 16.2739 8.59473 16.2739C8.33584 16.2739 8.12598 16.4838 8.12598 16.7427C8.12598 17.0016 8.33584 17.2114 8.59473 17.2114Z" fill="#2934D0"/>
  <path d="M10.1182 17.2114C10.377 17.2114 10.5869 17.0016 10.5869 16.7427C10.5869 16.4838 10.377 16.2739 10.1182 16.2739C9.85928 16.2739 9.64941 16.4838 9.64941 16.7427C9.64941 17.0016 9.85928 17.2114 10.1182 17.2114Z" fill="#2934D0"/>
  <path d="M21.9039 0.798517C18.1888 0.850267 15.1999 3.95808 15.287 7.67255C15.3226 9.19233 15.8632 10.587 16.7475 11.6956C18.0724 13.3566 18.8552 15.3795 18.9541 17.4925H25.045C25.144 15.3789 25.9279 13.356 27.2528 11.6941C28.1674 10.5469 28.714 9.09342 28.714 7.51224C28.7141 3.77217 25.656 0.746299 21.9039 0.798517Z" fill="white"/>
  <path d="M20.7929 17.9622C20.534 17.9622 20.3242 17.7524 20.3242 17.4934V12.9949L19.7819 12.4525C19.5988 12.2695 19.5988 11.9727 19.7819 11.7897C19.9648 11.6066 20.2618 11.6066 20.4447 11.7897L21.1243 12.4694C21.2123 12.5573 21.2617 12.6764 21.2617 12.8008V17.4935C21.2617 17.7523 21.0519 17.9622 20.7929 17.9622Z" fill="#2934D0"/>
  <path d="M23.207 17.9613C22.9481 17.9613 22.7383 17.7515 22.7383 17.4925V12.7998C22.7383 12.6755 22.7876 12.5562 22.8756 12.4684L23.5553 11.7887C23.7382 11.6056 24.0352 11.6056 24.2181 11.7887C24.4012 11.9717 24.4012 12.2685 24.2181 12.4515L23.6758 12.9939V17.4924C23.6758 17.7514 23.466 17.9613 23.207 17.9613Z" fill="#2934D0"/>
  <path d="M25.3772 23.0288H18.6221C18.3632 23.0288 18.1533 22.8189 18.1533 22.5601V17.9612C18.1533 17.7023 18.3632 17.4924 18.6221 17.4924H25.3772C25.6361 17.4924 25.846 17.7023 25.846 17.9612V22.5601C25.846 22.819 25.6361 23.0288 25.3772 23.0288Z" fill="white"/>
  <path d="M24.8024 23.0291C24.8024 24.5766 23.5479 25.8311 22.0003 25.8311C20.4528 25.8311 19.1982 24.5766 19.1982 23.0291H24.8024Z" fill="white"/>
  <path d="M41.4835 22.3582H31.6328C31.374 22.3582 31.1641 22.1483 31.1641 21.8894V13.0952C31.1641 12.8364 31.374 12.6265 31.6328 12.6265H41.4835C41.7423 12.6265 41.9522 12.8364 41.9522 13.0952V21.8894C41.9522 22.1484 41.7423 22.3582 41.4835 22.3582Z" fill="#6583FE"/>
  <path d="M41.9522 15.3159V13.0955C41.9522 12.8366 41.7423 12.6267 41.4835 12.6267H31.6328C31.374 12.6267 31.1641 12.8366 31.1641 13.0955V15.3159H41.9522Z" fill="white"/>
  <path d="M42.2491 28.6856H40.8479V22.827H41.4839C42.0008 22.827 42.4214 22.4064 42.4214 21.8895V13.0953C42.4214 12.5783 42.0008 12.1578 41.4839 12.1578H40.8479V7.96209C40.8479 6.81393 39.9139 5.8799 38.7657 5.8799H28.9962C28.6932 4.56852 28.0268 3.36693 27.0437 2.39746C25.6643 1.03696 23.8409 0.300181 21.8978 0.329712C19.9766 0.356431 18.1786 1.13934 16.835 2.53415C15.9195 3.48449 15.2963 4.63537 15.0052 5.8799H5.23435C4.08619 5.8799 3.15216 6.81393 3.15216 7.96209V23.7872C3.15216 24.0461 3.36198 24.2559 3.62091 24.2559C3.87985 24.2559 4.08966 24.0461 4.08966 23.7872V7.96209C4.08966 7.33096 4.60323 6.8174 5.23435 6.8174H14.8523C14.8247 7.10324 14.8119 7.39199 14.8188 7.68337C14.8559 9.26409 15.3962 10.7525 16.3814 11.9878C17.563 13.469 18.2723 15.2069 18.4508 17.0401C18.0157 17.1211 17.6849 17.5029 17.6849 17.9611V18.7353C17.4878 18.7907 17.3424 18.9697 17.3424 19.1846C17.3424 19.3995 17.4879 19.5786 17.6849 19.634V20.7096C17.4878 20.7651 17.3424 20.9441 17.3424 21.159C17.3424 21.3739 17.4879 21.5529 17.6849 21.6083V22.56C17.6849 23.0769 18.1055 23.4975 18.6224 23.4975H18.7632C18.9914 25.0798 20.3558 26.2997 22 26.2997C23.6443 26.2997 25.0087 25.0798 25.2368 23.4976H25.3776C25.8945 23.4976 26.3151 23.077 26.3151 22.5601V21.6084C26.5122 21.553 26.6575 21.374 26.6575 21.1591C26.6575 20.9442 26.5121 20.7651 26.3151 20.7097V19.6341C26.5122 19.5786 26.6575 19.3996 26.6575 19.1847C26.6575 18.9698 26.5121 18.7908 26.3151 18.7354V17.9612C26.3151 17.503 25.9843 17.1212 25.5493 17.0402C25.7279 15.2078 26.4376 13.4692 27.6197 11.9864C28.6426 10.7033 29.1833 9.15627 29.1833 7.51218C29.1833 7.27865 29.1716 7.0469 29.1498 6.81749H38.7657C39.3968 6.81749 39.9104 7.33106 39.9104 7.96218V12.1579H31.6332C31.1163 12.1579 30.6957 12.5784 30.6957 13.0954V21.8896C30.6957 22.4065 31.1163 22.8271 31.6332 22.8271H35.7218C35.9808 22.8271 36.1906 22.6173 36.1906 22.3583C36.1906 22.0994 35.9808 21.8896 35.7218 21.8896H31.6332V13.0954H41.4839V21.8896H38.5907C38.3318 21.8896 38.1219 22.0994 38.1219 22.3583C38.1219 22.6173 38.3318 22.8271 38.5907 22.8271H39.9104V28.6857H29.4986C29.2264 28.6857 28.9679 28.8038 28.7897 29.0096L27.7229 30.242H16.277L15.2102 29.0096C15.0321 28.8038 14.7736 28.6857 14.5013 28.6857H4.08966V26.6559C4.08966 26.397 3.87985 26.1872 3.62091 26.1872C3.36198 26.1872 3.15216 26.397 3.15216 26.6559V28.6856H1.75098C0.97557 28.6856 0.344727 29.3165 0.344727 30.0919V32.4553C0.344727 33.2307 0.97557 33.8616 1.75098 33.8616H42.2491C43.0245 33.8616 43.6553 33.2307 43.6553 32.4553V30.0919C43.6553 29.3165 43.0246 28.6856 42.2491 28.6856ZM25.3776 17.9612L25.3777 18.716H18.6224V17.9612H18.9546H25.0454H25.3776ZM25.3778 19.6534L25.3779 20.6903H18.6224V19.6534H25.3778ZM22 25.3622C20.8739 25.3622 19.9316 24.5603 19.714 23.4976H24.286C24.0684 24.5603 23.1262 25.3622 22 25.3622ZM24.8021 22.5601H19.198H18.6225V21.6278H25.3781L25.3782 22.5601H24.8021ZM26.8867 11.4019C25.5746 13.0478 24.7916 14.983 24.6078 17.0237H19.3923C19.2085 14.9822 18.4259 13.0476 17.1143 11.4033C16.2579 10.3296 15.7882 9.03571 15.7561 7.66152C15.7168 5.9894 16.3399 4.39949 17.5102 3.18459C18.6789 1.97137 20.2418 1.29037 21.9108 1.26712C23.5971 1.24631 25.1858 1.88221 26.3853 3.06506C27.585 4.24809 28.2458 5.82749 28.2458 7.51227C28.2458 8.94159 27.7758 10.2866 26.8867 11.4019ZM42.7178 32.4553C42.7178 32.7138 42.5076 32.9241 42.2491 32.9241H1.75098C1.49251 32.9241 1.28223 32.7138 1.28223 32.4553V30.0919C1.28223 29.8334 1.49251 29.6231 1.75098 29.6231H14.5015L15.7085 31.0174C15.7974 31.1202 15.9268 31.1794 16.0628 31.1794H27.9372C28.0733 31.1794 28.2026 31.1202 28.2916 31.0174L29.4986 29.6231H42.2491C42.5076 29.6231 42.7178 29.8334 42.7178 30.0919V32.4553Z" fill="#2934D0"/>
  <path d="M32.9824 14.5813C33.1636 14.5813 33.3105 14.4344 33.3105 14.2532C33.3105 14.072 33.1636 13.925 32.9824 13.925C32.8012 13.925 32.6543 14.072 32.6543 14.2532C32.6543 14.4344 32.8012 14.5813 32.9824 14.5813Z" fill="#2934D0"/>
  <path d="M34.0293 14.5813C34.2105 14.5813 34.3574 14.4344 34.3574 14.2532C34.3574 14.072 34.2105 13.925 34.0293 13.925C33.8481 13.925 33.7012 14.072 33.7012 14.2532C33.7012 14.4344 33.8481 14.5813 34.0293 14.5813Z" fill="#2934D0"/>
  <path d="M35.0762 14.5813C35.2574 14.5813 35.4043 14.4344 35.4043 14.2532C35.4043 14.072 35.2574 13.925 35.0762 13.925C34.895 13.925 34.748 14.072 34.748 14.2532C34.748 14.4344 34.895 14.5813 35.0762 14.5813Z" fill="#2934D0"/>
</svg>
